<?xml version="1.0" standalone="no"?>
<!DOCTYPE svg PUBLIC "-//W3C//DTD SVG 1.1//EN" "http://www.w3.org/Graphics/SVG/1.1/DTD/svg11.dtd">
<svg xmlns="http://www.w3.org/2000/svg">
<defs >
<font id="Nunito" horiz-adv-x="557" ><font-face
    font-family="Nunito"
    units-per-em="1000"
    panose-1="0 0 5 0 0 0 0 0 0 0"
    ascent="1011"
    descent="-353"
    alphabetic="0" />
<glyph unicode=" " glyph-name="space" horiz-adv-x="258" />
<glyph unicode="!" glyph-name="exclam" horiz-adv-x="229" d="M104 179T97 186T89 207L65 660Q63 683 77 696T114 710Q137 710 151 697T163 660L139 207Q138 193 131 186T114 179Q104 179 97 186ZM91 -5T75 10T59 51Q59 76 75 92T115 108Q138 108 153 92T169
51Q169 26 154 11T115 -5Q91 -5 75 10Z" />
<glyph unicode="&quot;" glyph-name="quotedbl" horiz-adv-x="421" d="M100 423T93 430T84 450L66 654L65 664Q65 686 78 698T111 710Q131 710 143 698T156 665Q156 658 155 654L138 450Q135 423 111 423Q100 423 93 430ZM300 423T293 430T284 450L266 654L265
664Q265 686 278 698T311 710Q331 710 343 698T356 665Q356 658 355 654L338 450Q335 423 311 423Q300 423 293 430Z" />
<glyph unicode="#" glyph-name="numbersign" horiz-adv-x="600" d="M468 472L423 241H521Q534 241 543 232T553 210Q553 198 544 190T521 182H412L380 19Q378 8 370 2T350 -5Q336 -5 327 4T318 26Q318 32 319 35L348 182H188L156 19Q155 9 147 2T127 -5Q114 -5
105 4T96 26Q96 32 97 35L126 182H59Q45 182 36 191T27 213Q27 225 36 233T59 241H137L182 472H79Q66 472 57 481T47 503Q47 515 56 523T79 531H193L224 689Q226 700 234 706T254 713Q268 713 276 705T285 682Q285 676 284 673L256 531H416L447 689Q448 699 457
706T477 713Q491 713 499 705T508 682Q508 676 507 673L479 531H541Q555 531 564 522T573 500Q573 488 564 480T541 472H468ZM359 241L405 472H245L199 241H359Z" />
<glyph unicode="$" glyph-name="dollar" horiz-adv-x="600" d="M551 112T495 59T345 -6V-83Q345 -100 336 -110T310 -120Q294 -120 285 -110T275 -83V-7Q214 -3 157 17T60 74Q44 87 44 108Q44 122 52 132T71 143Q83 143 100 132Q200 62 301 62Q380 62 424 95T468
189Q468 225 446 247T389 282T295 309Q219 328 173 347T93 405T60 510Q60 564 87 607T162 678T274 711V788Q274 804 284 814T309 825Q325 825 334 815T344 788V711Q397 706 446 686T529 631Q546 617 546 597Q546 583 538 573T518 562Q505 562 490 573Q446 609 405
626T308 643Q232 643 188 608T143 513Q143 471 167 446T228 408T327 378Q400 360 444 342T520 288T551 190Q551 112 495 59Z" />
<glyph unicode="%" glyph-name="percent" horiz-adv-x="930" d="M290 -17T270 -17Q257 -17 248 -8T238 16Q238 28 245 39L627 700Q640 722 660 722Q673 722 682 713T692 689Q692 678 686 666L303 5Q290 -17 270 -17ZM145 282T100 336T55 498Q55 604 100 658T225
713Q305 713 350 659T395 498Q395 391 350 337T225 282Q145 282 100 336ZM274 340T297 378T321 498Q321 579 298 617T225 655Q176 655 152 617T128 498Q128 416 152 378T225 340Q274 340 297 378ZM625 -7T580 47T535 209Q535 315 580 369T705 424Q786 424 830 370T875
209Q875 102 831 48T705 -7Q625 -7 580 47ZM755 51T778 88T802 209Q802 290 778 328T705 366Q656 366 633 328T609 209Q609 127 632 89T705 51Q755 51 778 88Z" />
<glyph unicode="&amp;" glyph-name="ampersand" horiz-adv-x="664" d="M655 39T655 26Q655 13 645 3T620 -8Q606 -8 595 3L503 99Q458 47 400 20T278 -7Q212 -7 161 15T81 80T52 177Q52 243 93 294T218 395Q174 441 154 478T133 558Q133 630 182 671T306 712Q378
712 421 674T464 570Q464 516 431 474T325 386L494 208Q528 281 534 382Q535 400 546 409T571 419Q586 419 596 409T605 380Q596 250 543 156L645 50Q655 39 655 26ZM264 650T237 625T210 558Q210 527 226 499T280 433Q342 473 367 502T393 566Q393 604 370 627T307
650Q264 650 237 625ZM331 59T376 81T456 147L262 348Q189 304 161 266T132 179Q132 123 172 91T281 59Q331 59 376 81Z" />
<glyph unicode="&apos;" glyph-name="quotesingle" horiz-adv-x="221" d="M100 423T93 430T84 450L66 654L65 664Q65 686 78 698T111 710Q131 710 143 698T156 665Q156 658 155 654L138 450Q135 423 111 423Q100 423 93 430Z" />
<glyph unicode="(" glyph-name="parenleft" horiz-adv-x="314" d="M103 39T103 263Q103 487 209 690Q222 713 244 713Q256 713 264 705T273 685Q273 678 270 670Q186 472 186 263Q186 54 270 -144Q273 -153 273 -159Q273 -172 265 -179T244 -187Q222 -187 209
-164Q103 39 103 263Z" />
<glyph unicode=")" glyph-name="parenright" horiz-adv-x="314" d="M93 -187T70 -187Q58 -187 50 -180T41 -160Q41 -156 45 -144Q128 55 128 263Q128 471 45 670Q41 682 41 686Q41 698 49 705T70 713Q93 713 106 690Q211 486 211 263Q211 40 106 -164Q93 -187 70 -187Z" />
<glyph unicode="*" glyph-name="asterisk" horiz-adv-x="450" d="M405 565T414 556T424 534Q424 522 415 513T389 504L270 508L333 407Q339 397 339 388Q339 376 330 368T308 359Q291 359 281 377L225 483L169 376Q159 358 142 358Q130 358 120 367T110 388Q110
397 116 406L181 508L60 504Q45 503 36 512T27 534Q27 547 35 556T60 564L181 560L116 661Q110 670 110 680Q110 692 120 701T142 710Q159 710 169 692L225 585L281 691Q291 710 309 710Q321 710 330 702T339 681Q339 672 333 661L270 560L389 564Q405 565 414
556Z" />
<glyph unicode="+" glyph-name="plus" horiz-adv-x="600" d="M525 316T534 307T544 285Q544 272 535 263T512 253H331V73Q331 59 322 50T300 41Q287 41 278 50T269 73V253H88Q75 253 66 262T56 285Q56 298 65 307T88 316H269V496Q269 510 278 519T300 529Q313
529 322 520T331 496V316H512Q525 316 534 307Z" />
<glyph unicode="," glyph-name="comma" horiz-adv-x="229" d="M138 108T153 89T169 30Q169 -49 118 -103Q108 -114 95 -114Q85 -114 77 -107T69 -89Q69 -78 77 -70Q103 -43 110 -3Q88 -1 74 13T59 51Q59 76 74 92T113 108Q138 108 153 89Z" />
<glyph unicode="-" glyph-name="hyphen" horiz-adv-x="425" d="M84 233T75 242T65 266Q65 281 74 290T102 300H322Q341 300 350 291T360 266Q360 251 351 242T322 233H102Q84 233 75 242Z" />
<glyph unicode="." glyph-name="period" horiz-adv-x="229" d="M91 -5T75 10T59 51Q59 76 75 92T115 108Q138 108 153 92T169 51Q169 26 154 11T115 -5Q91 -5 75 10Z" />
<glyph unicode="/" glyph-name="slash" horiz-adv-x="283" d="M52 -49T43 -56T23 -63Q9 -63 -2 -53T-13 -28Q-13 -22 -10 -14L226 724Q230 737 239 744T259 751Q273 751 284 741T295 715Q295 712 293 702L56 -36Q52 -49 43 -56Z" />
<glyph unicode="0" glyph-name="zero" horiz-adv-x="600" d="M179 -8T116 84T53 352Q53 529 116 621T300 713Q421 713 484 622T547 353Q547 176 484 84T300 -8Q179 -8 116 84ZM384 61T424 132T464 353Q464 504 425 574T300 644Q216 644 176 574T136 353Q136 203
176 132T300 61Q384 61 424 132Z" />
<glyph unicode="1" glyph-name="one" horiz-adv-x="600" d="M510 69T520 60T530 35Q530 18 521 9T492 0H161Q142 0 133 9T123 35Q123 51 133 60T161 69H285V605L176 534Q168 529 160 529Q146 529 136 542T125 570Q125 591 141 600L293 699Q310 710 328 710Q345
710 356 699T367 668V69H492Q510 69 520 60Z" />
<glyph unicode="2" glyph-name="two" horiz-adv-x="600" d="M526 69T536 60T546 35Q546 0 508 0H116Q99 0 88 10T77 36Q77 55 91 69L332 334Q382 390 404 434T427 524Q427 582 394 613T299 644Q251 644 207 627T119 573Q104 561 91 561Q80 561 72 571T64 597Q64
618 80 631Q121 669 180 691T301 713Q396 713 452 663T509 528Q509 467 482 411T391 286L191 69H508Q526 69 536 60Z" />
<glyph unicode="3" glyph-name="three" horiz-adv-x="600" d="M458 344T491 300T525 191Q525 99 463 46T294 -7Q229 -7 170 15T69 75Q53 90 53 109Q53 124 61 134T80 144Q94 144 108 133Q154 96 198 79T293 62Q367 62 405 96T444 194Q444 323 282 323H229Q213
323 204 333T194 358Q194 372 203 382T229 392H266Q344 392 386 426T428 526Q428 583 394 613T298 644Q251 644 207 627T119 573Q105 562 91 562Q80 562 72 572T64 597Q64 616 80 631Q121 669 179 691T300 713Q396 713 452 665T509 534Q509 473 479 428T394 362Q458
344 491 300Z" />
<glyph unicode="4" glyph-name="four" horiz-adv-x="600" d="M551 221T561 212T571 187Q571 153 533 153H458V37Q458 17 447 6T417 -5Q399 -5 388 6T377 37V153H81Q63 153 53 163T43 188Q43 202 54 219L381 692Q395 710 417 710Q434 710 446 699T458 668V221H533Q551
221 561 212ZM136 221H377V568L136 221Z" />
<glyph unicode="5" glyph-name="five" horiz-adv-x="600" d="M394 442T444 414T522 336T550 219Q550 153 520 102T437 22T313 -7Q251 -7 192 15T92 75Q76 90 76 109Q76 124 84 134T103 144Q117 144 131 133Q175 97 219 80T311 62Q385 62 427 104T469 218Q469 288
427 331T314 374Q223 374 166 304Q152 289 132 289Q118 289 109 297T99 321V666Q99 683 109 694T139 705H491Q509 705 519 696T530 671Q530 655 520 646T491 637H180V386Q208 413 245 427T327 442Q394 442 444 414Z" />
<glyph unicode="6" glyph-name="six" horiz-adv-x="599" d="M393 443T443 415T521 336T549 219Q549 154 520 102T439 21T322 -8Q194 -8 125 81T55 335Q55 453 87 538T180 668T325 713Q382 713 438 691T535 631Q552 615 552 597Q552 582 544 572T525 562Q511 562
496 573Q409 644 327 644Q238 644 188 563T138 336V323Q161 379 212 411T329 443Q393 443 443 415ZM386 61T427 104T468 218Q468 289 427 331T317 374Q248 374 205 331T161 218Q161 148 204 105T318 61Q386 61 427 104Z" />
<glyph unicode="7" glyph-name="seven" horiz-adv-x="600" d="M521 705T530 696T540 671Q540 657 531 640L199 15Q187 -7 164 -7Q148 -7 136 4T123 31Q123 42 130 53L442 636H97Q79 636 70 645T60 670Q60 687 69 696T97 705H503Q521 705 530 696Z" />
<glyph unicode="8" glyph-name="eight" horiz-adv-x="600" d="M484 343T518 297T553 187Q553 96 487 45T300 -7Q179 -7 113 44T47 187Q47 252 82 298T179 362Q126 382 95 425T64 526Q64 612 126 662T300 713Q411 713 473 663T536 526Q536 468 505 425T422 362Q484
343 518 297ZM145 458T184 425T300 392Q376 392 415 425T455 520Q455 579 416 612T300 645Q224 645 185 612T145 520Q145 458 184 425ZM472 61T472 192Q472 323 300 323Q128 323 128 192Q128 61 300 61Q472 61 472 192Z" />
<glyph unicode="9" glyph-name="nine" horiz-adv-x="600" d="M406 713T475 624T545 370Q545 252 513 167T420 37T275 -8Q218 -8 162 14T65 74Q48 90 48 108Q48 123 56 133T75 143Q89 143 104 132Q191 61 273 61Q362 61 412 142T462 369V382Q439 326 388 294T271
262Q207 262 157 290T79 369T51 486Q51 551 80 603T161 684T278 713Q406 713 475 624ZM352 331T395 374T439 487Q439 557 396 600T282 644Q214 644 173 601T132 487Q132 416 173 374T283 331Q352 331 395 374Z" />
<glyph unicode=":" glyph-name="colon" horiz-adv-x="229" d="M91 385T75 400T59 441Q59 466 75 481T115 497Q138 497 153 482T169 441Q169 416 154 401T115 385Q91 385 75 400ZM91 -5T75 10T59 51Q59 76 75 92T115 108Q138 108 153 92T169 51Q169 26 154 11T115
-5Q91 -5 75 10Z" />
<glyph unicode=";" glyph-name="semicolon" horiz-adv-x="229" d="M91 385T75 400T59 441Q59 466 75 481T115 497Q138 497 153 482T169 441Q169 416 154 401T115 385Q91 385 75 400ZM138 108T153 89T169 30Q169 -49 118 -103Q108 -114 95 -114Q85 -114 77 -107T69
-89Q69 -78 77 -70Q103 -43 110 -3Q88 -1 74 13T59 51Q59 76 74 92T113 108Q138 108 153 89Z" />
<glyph unicode="&lt;" glyph-name="less" horiz-adv-x="600" d="M544 98T544 81Q544 68 535 60T510 51Q499 51 490 55L86 238Q72 244 64 256T56 285Q56 300 64 312T86 330L490 513Q502 518 510 518Q525 518 534 510T544 487Q544 470 527 461L133 284L527 108Q544
98 544 81Z" />
<glyph unicode="=" glyph-name="equal" horiz-adv-x="600" d="M80 353T71 362T62 386Q62 398 71 407T94 416H518Q532 416 541 407T550 383Q550 371 541 362T518 353H94Q80 353 71 362ZM80 409T71 418T62 442Q62 454 71 463T94 472H518Q532 472 541 463T550 439Q550
427 541 418T518 409H94Q80 409 71 418Z" />
<glyph unicode="&gt;" glyph-name="greater" horiz-adv-x="600" d="M528 324T536 312T544 285Q544 269 536 257T514 238L110 55Q101 51 90 51Q76 51 66 59T56 81Q56 98 74 108L467 284L74 461Q56 469 56 487Q56 501 65 509T90 518Q98 518 110 513L514 330Q528
324 536 312Z" />
<glyph unicode="?" glyph-name="question" horiz-adv-x="443" d="M196 179T189 187T182 209Q182 271 204 315T269 411Q303 454 319 484T336 551Q336 594 305 618T221 643Q176 643 138 626T52 572Q35 560 24 560Q12 560 5 570T-3 595Q-3 615 13 630Q53 668 110
690T225 713Q312 713 365 670T419 557Q419 504 397 466T328 375Q285 326 262 289T233 202Q232 191 225 185T207 179Q196 179 189 187ZM184 -5T169 11T153 51Q153 75 168 91T208 108Q232 108 247 92T263 51Q263 27 248 11T208 -5Q184 -5 169 11Z" />
<glyph unicode="@" glyph-name="at" horiz-adv-x="926" d="M344 -152T248 -99T101 50T49 273Q49 405 104 504T256 657T473 711Q601 711 692 659T830 522T877 344Q877 246 848 184T773 93T676 64Q623 64 593 87T558 153H556Q531 112 494 88T406 64Q340 64 299 110T258
239Q258 307 284 367T359 463T469 499Q516 499 551 477T597 418H598L606 462Q608 474 617 481T639 488Q653 488 661 480T670 458Q670 453 669 450L628 216Q624 188 624 180Q624 146 640 132T688 118Q716 118 745 140T794 213T814 344Q814 423 776 493T661 606T473
650Q371 650 290 605T161 474T114 273Q114 163 157 81T281 -46T473 -91Q625 -91 710 -9Q724 4 739 4Q751 4 759 -5T767 -27Q767 -43 755 -54Q710 -99 637 -125T473 -152Q344 -152 248 -99ZM469 118T505 148T561 227T580 328Q580 384 553 413T478 443Q430 443 395
414T341 339T322 242Q322 183 350 151T419 118Q469 118 505 148Z" />
<glyph unicode="A" glyph-name="A" horiz-adv-x="727" d="M698 39T698 30Q698 15 687 5T659 -5Q634 -5 624 19L553 181H176L104 19Q94 -5 69 -5Q53 -5 41 5T29 31Q29 39 33 47L319 683Q325 697 337 704T363 711Q378 711 390 704T408 683L694 47Q698 39 698 30ZM206
249H523L364 608L206 249Z" />
<glyph unicode="B" glyph-name="B" horiz-adv-x="674" d="M548 346T581 302T615 192Q615 99 554 50T381 0H129Q110 0 99 11T87 40V665Q87 683 98 694T129 705H370Q479 705 539 657T599 521Q599 464 570 423T487 362Q548 346 581 302ZM168 392H358Q437 392 477
424T518 517Q518 637 358 637H168V392ZM456 68T495 98T535 194Q535 324 373 324H168V68H373Q456 68 495 98Z" />
<glyph unicode="C" glyph-name="C" horiz-adv-x="677" d="M286 -8T213 35T101 160T61 353Q61 463 100 544T213 669T386 713Q453 713 512 692T616 630Q632 615 632 595Q632 581 624 571T605 560Q593 560 576 571Q525 611 484 627T388 643Q272 643 210 568T147 353Q147
213 209 138T388 62Q441 62 483 78T576 134Q593 145 605 145Q616 145 624 135T632 110Q632 90 616 75Q572 35 513 14T386 -8Q286 -8 213 35Z" />
<glyph unicode="D" glyph-name="D" horiz-adv-x="739" d="M110 0T99 11T87 40V665Q87 683 98 694T129 705H324Q493 705 585 614T678 353Q678 184 585 92T324 0H129Q110 0 99 11ZM319 70Q593 70 593 353Q593 635 319 635H169V70H319Z" />
<glyph unicode="E" glyph-name="E" horiz-adv-x="582" d="M110 0T99 11T87 40V665Q87 683 98 694T129 705H503Q521 705 531 696T541 671Q541 655 531 646T503 637H168V392H483Q501 392 511 383T521 358Q521 342 511 333T483 324H168V68H503Q521 68 531 60T541
34Q541 18 531 9T503 0H129Q110 0 99 11Z" />
<glyph unicode="F" glyph-name="F" d="M109 -5T98 6T87 37V665Q87 683 98 694T129 705H493Q511 705 521 696T531 670Q531 654 521 645T493 636H168V393H473Q491 393 501 384T511 358Q511 342 501 333T473 324H168V37Q168 18 158 7T128 -5Q109 -5 98 6Z" />
<glyph unicode="G" glyph-name="G" horiz-adv-x="724" d="M626 367T635 358T645 333V84Q645 60 638 48T610 29Q570 12 513 2T399 -8Q294 -8 218 35T102 159T61 353Q61 464 101 545T216 669T392 713Q462 713 522 692T623 630Q640 613 640 595Q640 581 632 571T612
560Q600 560 584 572Q532 612 490 627T393 643Q274 643 211 568T147 353Q147 210 211 136T401 61Q494 61 570 89V303H424Q407 303 397 312T387 335Q387 350 397 358T424 367H611Q626 367 635 358Z" />
<glyph unicode="H" glyph-name="H" horiz-adv-x="758" d="M650 710T660 699T671 668V37Q671 18 661 7T631 -5Q612 -5 601 6T590 37V323H168V37Q168 18 157 7T127 -5Q108 -5 98 6T87 37V668Q87 687 97 698T127 710Q146 710 157 699T168 668V393H590V668Q590 687
601 698T631 710Q650 710 660 699Z" />
<glyph unicode="I" glyph-name="I" horiz-adv-x="256" d="M109 -5T98 6T87 37V668Q87 687 98 698T128 710Q147 710 158 699T169 668V37Q169 18 158 7T128 -5Q109 -5 98 6Z" />
<glyph unicode="J" glyph-name="J" horiz-adv-x="326" d="M15 -7T2 2T-11 29Q-11 62 26 63L56 65Q107 68 132 96T157 188V668Q157 687 169 698T198 710Q217 710 228 699T239 668V187Q239 95 197 49T70 -3L40 -5Q15 -7 2 2Z" />
<glyph unicode="K" glyph-name="K" horiz-adv-x="628" d="M608 49T608 33Q608 19 597 8T570 -4Q557 -4 543 8L169 335V37Q169 18 158 7T128 -5Q109 -5 98 6T87 37V668Q87 687 98 698T128 710Q147 710 158 699T169 668V381L526 698Q537 709 552 709Q567 709 578
698T589 672Q589 657 576 644L253 360L594 62Q608 49 608 33Z" />
<glyph unicode="L" glyph-name="L" horiz-adv-x="540" d="M110 0T99 10T87 38V668Q87 687 98 698T128 710Q147 710 158 699T169 668V70H492Q510 70 520 61T530 35Q530 18 520 9T492 0H127Q110 0 99 10Z" />
<glyph unicode="M" glyph-name="M" horiz-adv-x="841" d="M732 710T742 699T753 668V35Q753 17 743 6T715 -5Q697 -5 688 6T679 35V546L462 130Q448 101 421 101Q395 101 380 130L162 541V35Q162 17 153 6T125 -5Q107 -5 97 6T87 35V668Q87 687 98 698T128 710Q153
710 168 681L422 194L673 681Q681 697 690 703T713 710Q732 710 742 699Z" />
<glyph unicode="N" glyph-name="N" horiz-adv-x="739" d="M632 710T642 699T652 668V37Q652 18 642 7T612 -5Q593 -5 579 12L164 567V37Q164 18 154 7T125 -5Q107 -5 97 6T87 37V668Q87 687 97 698T127 710Q147 710 161 693L575 138V668Q575 687 585 698T614 710Q632
710 642 699Z" />
<glyph unicode="O" glyph-name="O" horiz-adv-x="764" d="M284 -8T212 36T100 161T61 352Q61 463 99 544T210 669T382 713Q481 713 553 670T664 545T703 353Q703 243 664 162T553 36T382 -8Q284 -8 212 36ZM494 62T556 137T619 353Q619 493 557 568T382 643Q270
643 208 568T145 353Q145 214 207 138T382 62Q494 62 556 137Z" />
<glyph unicode="P" glyph-name="P" horiz-adv-x="645" d="M109 -5T98 6T87 37V665Q87 683 98 694T129 705H366Q477 705 538 651T600 498Q600 399 538 344T366 289H169V37Q169 18 158 7T128 -5Q109 -5 98 6ZM358 357Q519 357 519 498Q519 637 358 637H169V357H358Z" />
<glyph unicode="Q" glyph-name="Q" horiz-adv-x="764" d="M624 -130Q631 -141 631 -153Q631 -167 620 -176T594 -185Q568 -185 552 -159L494 -64Q458 -8 382 -8Q284 -8 212 36T100 161T61 352Q61 463 99 544T210 669T382 713Q480 713 552 670T664 545T703 353Q703
225 652 137T505 13Q527 6 544 -10T579 -56L624 -130ZM145 214T207 138T382 62Q494 62 556 137T619 353Q619 493 557 568T382 643Q270 643 208 568T145 353Q145 214 207 138Z" />
<glyph unicode="R" glyph-name="R" horiz-adv-x="686" d="M632 40T632 28Q632 13 621 4T594 -6Q571 -6 558 14L424 226Q398 267 370 282T294 298H168V37Q168 18 157 7T128 -5Q109 -5 98 6T87 37V665Q87 683 98 694T129 705H377Q492 705 552 654T613 504Q613 420
565 369T426 307Q451 299 471 281T511 231L625 51Q632 40 632 28ZM370 366Q452 366 492 400T533 503Q533 571 493 604T370 637H168V366H370Z" />
<glyph unicode="S" glyph-name="S" horiz-adv-x="617" d="M237 -8T169 14T59 75Q44 89 44 110Q44 124 52 134T71 145Q84 145 99 134Q192 62 311 62Q397 62 443 95T489 189Q489 224 467 245T409 280T312 307Q230 326 178 347T93 407T60 509Q60 569 92 615T183 687T317
713Q387 713 447 692T549 630Q565 614 565 595Q565 581 557 571T538 560Q527 560 509 571Q460 611 418 627T317 643Q234 643 188 609T142 512Q142 459 182 433T307 386Q398 364 450 346T536 290T571 191Q571 132 539 87T447 17T312 -8Q237 -8 169 14Z" />
<glyph unicode="T" glyph-name="T" horiz-adv-x="598" d="M280 -5T269 6T257 37V635H42Q24 635 14 644T4 670Q4 687 14 696T42 705H555Q573 705 583 696T593 670Q593 653 583 644T555 635H340V37Q340 18 329 7T299 -5Q280 -5 269 6Z" />
<glyph unicode="U" glyph-name="U" horiz-adv-x="724" d="M224 -8T153 64T82 276V668Q82 687 93 698T123 710Q141 710 152 699T163 668V269Q163 166 213 114T362 62Q460 62 510 114T560 269V668Q560 687 571 698T601 710Q620 710 631 699T642 668V276Q642 137
571 65T362 -8Q224 -8 153 64Z" />
<glyph unicode="V" glyph-name="V" horiz-adv-x="691" d="M609 700T618 706T639 712Q655 712 667 702T680 676Q680 668 676 660L389 22Q383 9 371 2T345 -5Q331 -5 319 2T301 22L15 660Q12 668 12 675Q12 691 25 701T54 712Q78 712 89 689L347 106L604 689Q609
700 618 706Z" />
<glyph unicode="W" glyph-name="W" horiz-adv-x="1101" d="M992 698T1002 704T1024 711Q1040 711 1051 702T1063 676Q1063 669 1060 660L834 23Q829 9 817 2T790 -6Q776 -6 764 1T747 23L551 577L353 23Q348 9 336 2T310 -6Q296 -6 284 1T267 23L40 660Q37 668
37 675Q37 691 49 701T78 711Q90 711 100 705T115 685L312 117L512 679Q517 694 528 701T552 709Q565 709 576 701T592 678L789 115L988 685Q992 698 1002 704Z" />
<glyph unicode="X" glyph-name="X" horiz-adv-x="646" d="M620 48T620 34Q620 18 608 7T580 -4Q564 -4 551 10L323 301L94 10Q83 -4 65 -4Q50 -4 38 7T26 34Q26 49 35 59L275 360L48 646Q38 657 38 672Q38 687 49 698T76 709Q93 709 105 694L323 418L540 694Q552
709 569 709Q584 709 596 698T608 670Q608 656 599 646L371 360L610 59Q620 48 620 34Z" />
<glyph unicode="Y" glyph-name="Y" horiz-adv-x="601" d="M540 709T557 709Q571 709 582 698T593 671Q593 656 584 646L341 339V37Q341 17 330 6T300 -5Q282 -5 271 6T259 37V340L16 646Q6 657 6 671Q6 687 17 698T44 709Q61 709 73 694L301 403L528 694Q540 709
557 709Z" />
<glyph unicode="Z" glyph-name="Z" horiz-adv-x="590" d="M541 69T551 60T561 35Q561 18 551 9T523 0H76Q58 0 48 10T37 35Q37 50 48 66L448 636H76Q58 636 48 645T38 670Q38 687 48 696T76 705H512Q530 705 540 695T551 670Q551 656 540 640L139 69H523Q541 69 551 60Z" />
<glyph unicode="[" glyph-name="bracketleft" horiz-adv-x="314" d="M161 -180T135 -154T109 -78V603Q109 652 135 678T210 705H279Q295 705 304 697T314 673Q314 658 305 650T279 641H232Q189 641 189 596V-71Q189 -116 232 -116H279Q295 -116 304 -124T314 -148Q314
-164 305 -172T279 -180H210Q161 -180 135 -154Z" />
<glyph unicode="\" glyph-name="backslash" horiz-adv-x="282" d="M-10 702Q-12 707 -12 716Q-12 731 -2 741T23 751Q47 751 56 724L293 -14Q295 -24 295 -28Q295 -43 285 -53T260 -63Q249 -63 240 -57T226 -36L-10 702Z" />
<glyph unicode="]" glyph-name="bracketright" horiz-adv-x="314" d="M19 -180T10 -172T0 -148Q0 -133 9 -125T35 -116H81Q125 -116 125 -71V596Q125 641 81 641H35Q19 641 10 649T0 673Q0 689 9 697T35 705H104Q153 705 179 679T205 603V-78Q205 -127 179 -153T104
-180H35Q19 -180 10 -172Z" />
<glyph unicode="^" glyph-name="asciicircum" horiz-adv-x="600" d="M534 181T534 172Q534 158 525 150T502 141Q485 141 478 157L300 552L122 157Q116 141 98 141Q86 141 76 149T66 172Q66 181 70 189L256 600Q262 613 273 621T300 629Q314 629 326 621T344 600L530
189Q534 181 534 172Z" />
<glyph unicode="_" glyph-name="underscore" horiz-adv-x="500" d="M18 -53T9 -46T0 -27Q0 -16 9 -8T33 0H467Q482 0 491 -8T500 -27Q500 -38 491 -45T467 -53H33Q18 -53 9 -46Z" />
<glyph unicode="`" glyph-name="grave" horiz-adv-x="300" d="M-9 683Q-29 702 -29 721Q-29 737 -18 747T9 758Q32 758 50 735L166 583Q172 576 172 568Q172 559 165 553T149 546Q140 546 133 552L-9 683Z" />
<glyph unicode="a" glyph-name="a" horiz-adv-x="530" d="M457 499T457 307V35Q457 17 447 6T418 -5Q400 -5 389 6T378 35V83Q359 40 320 17T230 -7Q183 -7 144 12T81 65T58 140Q58 195 86 225T178 269T356 283H378V316Q378 376 354 404T274 432Q206 432 136 395Q109
378 98 378Q86 378 78 387T70 410Q70 424 78 434T106 456Q141 476 185 487T274 499Q457 499 457 307ZM301 57T339 97T378 202V231H360Q272 231 226 224T161 199T141 147Q141 108 169 83T241 57Q301 57 339 97Z" />
<glyph unicode="b" glyph-name="b" horiz-adv-x="582" d="M384 499T433 468T509 380T536 248Q536 172 509 115T433 25T320 -7Q263 -7 221 18T156 89V35Q156 17 146 6T116 -5Q97 -5 86 6T75 35V671Q75 688 86 699T116 710Q135 710 145 700T156 671V403Q178 449
220 474T320 499Q384 499 433 468ZM375 60T414 109T453 248Q453 335 414 383T304 431Q233 431 195 383T156 246Q156 157 194 109T304 60Q375 60 414 109Z" />
<glyph unicode="c" glyph-name="c" horiz-adv-x="479" d="M208 -7T156 24T75 112T46 244Q46 319 75 377T158 467T280 499Q318 499 355 489T421 458Q439 446 446 435T454 409Q454 395 447 386T427 377Q420 377 412 381T399 389T391 394Q365 411 342 421T284 431Q211
431 171 382T130 244Q130 156 170 108T284 60Q318 60 342 70T392 97Q403 104 413 109T430 114Q441 114 448 105T456 82Q456 69 449 59T423 35Q395 16 356 5T276 -7Q208 -7 156 24Z" />
<glyph unicode="d" glyph-name="d" horiz-adv-x="582" d="M485 710T496 699T507 671V35Q507 17 496 6T466 -5Q447 -5 437 6T426 35V89Q404 43 362 18T262 -7Q198 -7 149 25T73 114T46 248Q46 323 73 380T149 468T262 499Q319 499 361 474T426 403V671Q426 689
436 699T466 710Q485 710 496 699ZM349 60T387 108T426 246Q426 335 388 383T278 431Q207 431 168 383T128 248Q128 159 167 110T278 60Q349 60 387 108Z" />
<glyph unicode="e" glyph-name="e" horiz-adv-x="527" d="M463 113T471 104T479 81Q479 56 444 35Q408 14 368 4T290 -7Q177 -7 112 60T46 245Q46 320 75 377T156 467T276 499Q371 499 427 437T483 269Q483 249 475 240T449 231H127Q136 59 290 59Q329 59 357
69T417 98Q443 113 452 113Q463 113 471 104ZM213 436T175 396T129 283H412Q410 357 375 396T277 436Q213 436 175 396Z" />
<glyph unicode="f" glyph-name="f" horiz-adv-x="328" d="M237 637T210 608T183 519V487H294Q311 487 320 478T329 454Q329 439 320 431T294 423H183V35Q183 16 172 6T143 -5Q125 -5 114 5T102 35V423H35Q18 423 9 431T-1 454Q-1 469 8 478T35 487H102V505Q102
595 147 646T276 704L302 706Q328 708 339 701T351 676Q351 647 316 643L290 641Q237 637 210 608Z" />
<glyph unicode="g" glyph-name="g" horiz-adv-x="586" d="M489 497T500 486T511 457V33Q511 -76 455 -131T289 -187Q182 -187 111 -145Q75 -125 75 -99Q75 -85 82 -76T102 -67Q112 -67 138 -81Q173 -99 207 -110T288 -121Q359 -121 395 -84T431 26V112Q410 65
367 40T264 15Q200 15 151 45T74 130T46 257Q46 329 73 384T150 469T264 499Q322 499 365 474T430 403V457Q430 475 440 486T470 497Q489 497 500 486ZM350 82T390 128T430 257Q430 338 391 384T280 431Q209 431 169 385T128 257Q128 175 168 129T280 82Q350 82
390 128Z" />
<glyph unicode="h" glyph-name="h" horiz-adv-x="568" d="M407 499T451 451T495 306V35Q495 16 484 6T455 -5Q436 -5 425 5T414 35V304Q414 369 388 400T303 431Q236 431 196 390T156 279V35Q156 16 146 6T116 -5Q97 -5 86 5T75 35V671Q75 688 86 699T116 710Q135
710 145 700T156 671V409Q180 453 223 476T321 499Q407 499 451 451Z" />
<glyph unicode="i" glyph-name="i" horiz-adv-x="232" d="M98 -5T87 5T75 35V457Q75 476 86 486T116 497Q134 497 145 487T156 457V35Q156 15 145 5T116 -5Q98 -5 87 5ZM92 602T77 616T62 653Q62 675 77 689T116 703Q140 703 155 689T170 653Q170 630 155 616T116
602Q92 602 77 616Z" />
<glyph unicode="j" glyph-name="j" horiz-adv-x="232" d="M-51 -184T-63 -176T-76 -150Q-76 -123 -41 -119L-13 -117Q32 -114 53 -90T75 -11V457Q75 476 86 486T116 497Q134 497 145 487T156 457V-6Q156 -90 119 -132T2 -180L-26 -182Q-51 -184 -63 -176ZM92 602T77
616T62 653Q62 675 77 689T116 703Q140 703 155 689T170 653Q170 630 155 616T116 602Q92 602 77 616Z" />
<glyph unicode="k" glyph-name="k" horiz-adv-x="500" d="M480 49T480 32Q480 17 470 6T444 -5Q431 -5 417 7L156 232V35Q156 16 145 6T116 -5Q98 -5 87 5T75 35V670Q75 689 86 699T116 710Q133 710 144 700T156 670V264L395 483Q407 495 422 495Q437 495 448
484T459 458Q459 441 445 428L248 252L464 64Q480 49 480 32Z" />
<glyph unicode="l" glyph-name="l" horiz-adv-x="232" d="M98 -5T87 5T75 35V670Q75 689 86 699T116 710Q133 710 144 700T156 670V35Q156 16 145 6T116 -5Q98 -5 87 5Z" />
<glyph unicode="m" glyph-name="m" horiz-adv-x="852" d="M779 499T779 306V35Q779 16 768 6T739 -5Q721 -5 710 5T698 35V304Q698 371 674 401T599 431Q538 431 503 390T468 279V35Q468 16 457 6T427 -5Q409 -5 398 5T387 35V304Q387 371 363 401T287 431Q227
431 192 390T156 279V35Q156 16 145 6T116 -5Q98 -5 87 5T75 35V457Q75 475 86 486T116 497Q133 497 144 487T155 458V410Q177 453 216 476T306 499Q420 499 455 403Q476 447 519 473T617 499Q779 499 779 306Z" />
<glyph unicode="n" glyph-name="n" horiz-adv-x="568" d="M495 499T495 306V35Q495 16 485 6T455 -5Q436 -5 425 5T414 35V301Q414 369 388 400T303 431Q236 431 196 390T156 279V35Q156 16 146 6T116 -5Q97 -5 86 5T75 35V457Q75 475 86 486T116 497Q134 497
144 486T155 458V407Q179 452 222 475T320 499Q495 499 495 306Z" />
<glyph unicode="o" glyph-name="o" horiz-adv-x="555" d="M208 -7T156 24T75 112T46 246Q46 322 74 379T155 468T277 499Q346 499 399 468T480 380T509 246Q509 170 481 113T399 24T277 -7Q208 -7 156 24ZM349 60T387 107T426 246Q426 335 387 383T277 432Q206
432 167 384T128 246Q128 156 166 108T277 60Q349 60 387 107Z" />
<glyph unicode="p" glyph-name="p" horiz-adv-x="582" d="M384 499T433 467T509 378T536 244Q536 168 509 112T434 24T320 -7Q263 -7 221 18T156 89V-146Q156 -164 146 -174T116 -185Q97 -185 86 -174T75 -146V457Q75 475 86 486T116 497Q135 497 145 486T156
457V403Q178 449 220 474T320 499Q384 499 433 467ZM375 60T414 108T453 244Q453 332 414 381T304 431Q233 431 195 383T156 246Q156 157 194 109T304 60Q375 60 414 108Z" />
<glyph unicode="q" glyph-name="q" horiz-adv-x="582" d="M485 497T496 486T507 457V-146Q507 -163 496 -174T466 -185Q447 -185 437 -175T426 -146V89Q404 43 362 18T262 -7Q197 -7 149 24T73 111T46 244Q46 320 73 377T149 467T262 499Q319 499 361 474T426
403V457Q426 475 436 486T466 497Q485 497 496 486ZM349 60T387 108T426 246Q426 335 388 383T278 431Q207 431 168 382T128 244Q128 156 167 108T278 60Q349 60 387 108Z" />
<glyph unicode="r" glyph-name="r" horiz-adv-x="353" d="M358 500T358 463Q358 447 349 438T318 426L288 423Q221 417 189 376T156 278V35Q156 15 145 5T116 -5Q98 -5 87 5T75 35V457Q75 476 87 486T116 497Q132 497 143 487T154 458V402Q175 446 213 469T302
496L316 497Q358 500 358 463Z" />
<glyph unicode="s" glyph-name="s" horiz-adv-x="480" d="M193 -7T152 4T78 35Q60 47 53 57T45 83Q45 96 52 104T72 113Q84 113 107 98Q137 80 166 70T240 59Q294 59 324 78T354 133Q354 155 343 168T305 192T226 214Q138 233 100 265T62 352Q62 395 86 428T152
480T249 499Q288 499 324 489T389 459Q423 435 423 409Q423 396 415 387T396 378Q384 378 360 395Q332 413 307 423T245 433Q198 433 170 412T141 356Q141 334 151 321T186 297T257 276Q325 261 362 243T416 199T432 133Q432 70 379 32T239 -7Q193 -7 152 4Z" />
<glyph unicode="t" glyph-name="t" horiz-adv-x="340" d="M335 56T335 27Q335 10 323 2T285 -5L258 -3Q178 3 140 45T102 172V423H35Q18 423 9 431T-1 454Q-1 469 8 478T35 487H102V600Q102 619 113 629T143 640Q161 640 172 630T183 600V487H294Q310 487 319
478T329 454Q329 440 320 432T294 423H183V168Q183 113 205 89T273 61L300 59Q335 56 335 27Z" />
<glyph unicode="u" glyph-name="u" horiz-adv-x="561" d="M464 497T474 486T485 457V34Q485 17 475 6T445 -5Q427 -5 417 5T406 33V83Q383 39 342 16T248 -7Q161 -7 117 41T73 185V457Q73 475 84 486T114 497Q133 497 143 486T154 457V187Q154 122 180 92T262
61Q326 61 365 102T404 212V457Q404 475 415 486T445 497Q464 497 474 486Z" />
<glyph unicode="v" glyph-name="v" horiz-adv-x="514" d="M437 496T461 496Q476 496 488 486T500 461Q500 452 496 445L301 25Q295 12 283 5T257 -3Q244 -3 232 4T213 25L19 445Q15 452 15 460Q15 475 28 486T58 497Q68 497 77 491T92 474L259 99L426 472Q437
496 461 496Z" />
<glyph unicode="w" glyph-name="w" horiz-adv-x="842" d="M751 495T774 495Q789 495 801 485T813 460Q813 453 810 445L644 25Q638 12 627 5T601 -3Q588 -3 577 4T559 25L421 376L284 25Q279 12 267 5T241 -3Q228 -3 216 4T198 25L32 444Q29 452 29 458Q29 474
42 485T72 496Q96 496 106 472L243 103L384 469Q390 482 400 489T423 496Q436 496 446 489T462 469L603 104L741 471Q751 495 774 495Z" />
<glyph unicode="x" glyph-name="x" horiz-adv-x="518" d="M487 50T487 33Q487 18 476 7T450 -4Q434 -4 421 10L259 195L98 10Q85 -4 69 -4Q54 -4 43 7T31 34Q31 49 43 62L209 249L50 430Q38 444 38 458Q38 474 49 485T75 496Q91 496 104 482L259 304L414 482Q427
496 443 496Q458 496 469 485T480 459Q480 442 468 430L309 249L475 62Q487 50 487 33Z" />
<glyph unicode="y" glyph-name="y" horiz-adv-x="514" d="M437 496T461 496Q476 496 488 486T500 461Q500 452 496 445L215 -161Q210 -172 201 -178T181 -184Q166 -184 155 -175T143 -150Q143 -142 147 -134L217 17L19 445Q15 452 15 460Q15 475 28 486T58 497Q68
497 77 491T92 474L259 99L426 472Q437 496 461 496Z" />
<glyph unicode="z" glyph-name="z" horiz-adv-x="503" d="M450 64T459 56T468 32Q468 17 459 9T433 0H83Q66 0 55 10T44 36Q44 52 56 67L352 423H78Q61 423 52 431T42 454Q42 469 51 478T78 487H417Q435 487 446 477T457 451Q457 435 445 420L148 64H433Q450 64 459 56Z" />
<glyph unicode="{" glyph-name="braceleft" horiz-adv-x="351" d="M332 -116T341 -124T351 -148Q351 -164 342 -172T316 -180H247Q198 -180 172 -154T146 -78V149Q146 190 131 209T76 230Q59 231 50 240T41 263Q41 277 50 286T76 296Q115 298 130 316T146 376V603Q146
652 172 678T247 705H316Q332 705 341 697T351 673Q351 658 342 650T316 641H269Q226 641 226 596V368Q226 324 205 297T153 263Q183 256 204 229T226 158V-71Q226 -116 269 -116H316Q332 -116 341 -124Z" />
<glyph unicode="|" glyph-name="bar" horiz-adv-x="261" d="M114 -185T103 -174T92 -145V670Q92 687 103 698T131 710Q147 710 158 699T169 670V-145Q169 -162 158 -173T131 -185Q114 -185 103 -174Z" />
<glyph unicode="}" glyph-name="braceright" horiz-adv-x="351" d="M292 295T301 286T310 263Q310 249 301 240T275 230Q236 228 221 210T206 149L205 -78Q205 -127 179 -153T104 -180H35Q19 -180 10 -172T0 -148Q0 -133 9 -125T35 -116H81Q125 -116 125 -71V158Q125
202 146 229T198 263Q168 270 147 297T125 368V596Q125 641 81 641H35Q19 641 10 649T0 673Q0 689 9 697T35 705H104Q153 705 179 679T205 603V376Q205 335 220 317T275 296Q292 295 301 286Z" />
<glyph unicode="~" glyph-name="asciitilde" horiz-adv-x="600" d="M383 215T353 227T281 261Q250 278 229 286T190 295Q148 295 121 256Q107 239 92 239Q85 239 78 243Q64 252 64 267Q64 274 69 284Q89 318 118 336T185 354Q217 354 246 343T319 309Q350 292
371 284T410 275Q453 275 479 313Q493 330 507 330Q515 330 522 326Q535 320 535 303Q535 293 530 285Q489 215 415 215Q383 215 353 227Z" />
<glyph unicode="&#xa0;" glyph-name="uni00A0" horiz-adv-x="258" />
<glyph unicode="&#xa1;" glyph-name="exclamdown" horiz-adv-x="229" d="M91 384T75 400T59 440Q59 465 75 481T114 497Q138 497 153 481T169 440Q169 415 154 400T114 384Q91 384 75 400ZM93 -185T79 -172T67 -135L90 285Q91 298 98 305T115 312Q125 312 132
305T140 285L162 -135Q164 -158 151 -171T115 -185Q93 -185 79 -172Z" />
<glyph unicode="&#xa2;" glyph-name="cent" horiz-adv-x="600" d="M487 114T494 105T502 82Q502 69 495 59T469 35Q446 19 415 9T351 -5V-83Q351 -100 342 -110T316 -120Q300 -120 291 -110T281 -83V-4Q194 10 143 76T91 244Q91 345 142 412T281 495V574Q281 591
290 601T316 611Q332 611 341 601T351 574V498Q421 491 467 458Q485 446 492 435T500 409Q500 395 493 386T473 377Q466 377 458 381T445 389T437 394Q411 411 388 421T330 431Q257 431 217 382T176 244Q176 156 216 108T330 60Q364 60 388 70T438 97Q449 104 459
109T476 114Q487 114 494 105Z" />
<glyph unicode="&#xa3;" glyph-name="sterling" horiz-adv-x="600" d="M548 69T558 60T568 35Q568 18 558 9T530 0H78Q60 0 50 9T40 35Q40 51 50 60T78 69H146V324H70Q57 324 49 332T40 353Q40 366 48 374T70 382H146V521Q146 609 197 661T340 713Q400 713 455
691T552 630Q568 615 568 595Q568 581 560 571T541 560Q529 560 513 571Q464 611 425 627T342 644Q290 644 259 613T228 515V382H386Q399 382 407 374T416 353Q416 340 408 332T386 324H228V69H530Q548 69 558 60Z" />
<glyph unicode="&#xa4;" glyph-name="currency" horiz-adv-x="600" d="M100 34T93 42T86 61Q86 70 94 78L136 119Q91 173 91 250Q91 323 134 378L96 418Q86 427 86 439Q86 449 93 456T112 463Q121 463 131 453L170 414Q223 454 300 454Q377 454 431 414L470 453Q480
463 490 463Q500 463 507 456T515 438Q515 427 506 418L466 378Q487 351 498 318T510 250Q510 176 465 119L505 81Q515 70 515 58Q514 47 506 41T487 34Q478 34 470 44L429 84Q379 46 300 46Q226 46 171 83L132 45Q121 34 110 34Q100 34 93 42ZM347 97T380 118T431
175T449 250Q449 289 432 324T381 382T300 404Q253 404 220 382T169 325T151 250Q151 210 168 175T219 119T300 97Q347 97 380 118Z" />
<glyph unicode="&#xa5;" glyph-name="yen" horiz-adv-x="600" d="M533 709T550 709Q565 709 576 698T587 671Q587 657 577 646L371 385H505Q518 385 526 377T535 356Q535 343 527 335T505 326H341V234H505Q519 234 527 226T535 204Q535 191 527 183T505 175H341V37Q341
17 330 6T300 -5Q282 -5 271 6T259 37V175H95Q82 175 74 183T65 204Q65 218 73 226T95 234H259V326H95Q82 326 74 334T65 356Q65 369 73 377T95 385H229L23 647Q13 658 13 673Q13 688 24 699T51 710Q68 710 79 695L300 412L521 694Q533 709 550 709Z" />
<glyph unicode="&#xa6;" glyph-name="brokenbar" horiz-adv-x="261" d="M114 366T103 377T92 406V670Q92 687 103 698T131 710Q147 710 158 699T169 670V406Q169 389 158 378T131 366Q114 366 103 377ZM114 -185T103 -174T92 -145V119Q92 136 103 147T131 159Q147
159 158 148T169 119V-145Q169 -162 158 -173T131 -185Q114 -185 103 -174Z" />
<glyph unicode="&#xa7;" glyph-name="section" horiz-adv-x="537" d="M496 158T481 125T438 67Q456 35 456 -12Q456 -92 404 -139T260 -187Q159 -187 94 -144Q76 -132 69 -122T61 -97Q61 -84 69 -75T88 -66Q100 -66 123 -81Q155 -99 185 -110T262 -121Q317 -121
346 -94T376 -16Q376 24 356 51T286 103L190 150Q109 189 75 231T41 332Q41 368 56 402T98 460Q81 491 81 537Q81 617 134 664T278 712Q367 712 423 672Q457 649 457 623Q457 610 449 601T430 591Q418 591 394 608Q366 626 341 636T278 646Q222 646 192 619T161
541Q161 501 181 475T251 423L347 375Q427 335 461 293T496 193Q496 158 481 125ZM366 145T398 117Q419 147 419 186Q419 221 395 248T314 306L221 355Q168 383 139 408Q117 377 117 339Q117 304 141 277T223 219L316 171Q366 145 398 117Z" />
<glyph unicode="&#xa8;" glyph-name="dieresis" horiz-adv-x="300" d="M43 605T29 618T15 653Q15 674 29 687T64 700Q85 700 99 687T114 653Q114 631 100 618T64 605Q43 605 29 618ZM215 605T201 618T186 653Q186 674 200 687T236 700Q257 700 271 687T285 653Q285
632 271 619T236 605Q215 605 201 618Z" />
<glyph unicode="&#xa9;" glyph-name="copyright" horiz-adv-x="815" d="M308 -5T226 42T97 171T50 353Q50 453 97 534T226 663T408 710Q508 710 589 663T718 535T765 353Q765 253 718 172T589 43T408 -5Q308 -5 226 42ZM495 40T566 81T677 194T718 353Q718 440
678 511T566 624T408 665Q320 665 249 624T138 512T97 353Q97 266 137 194T249 81T408 40Q495 40 566 81ZM323 137T268 195T213 353Q213 452 268 510T415 568Q491 568 549 523Q563 513 563 495Q563 483 557 474T538 464Q529 464 515 472Q486 490 466 498T418 507Q356
507 324 468T291 353Q291 277 323 238T418 198Q446 198 466 206T515 233Q529 241 538 241Q550 241 556 232T563 210Q563 193 549 182Q498 137 415 137Q323 137 268 195Z" />
<glyph unicode="&#xaa;" glyph-name="ordfeminine" horiz-adv-x="330" d="M227 710T257 681T288 588V442Q288 425 279 416T254 407Q240 407 230 416T220 442V458Q208 434 185 421T133 407Q88 407 59 433T30 496Q30 528 46 546T100 573T203 582H219V599Q219 630
206 643T164 656Q128 656 86 636Q70 627 63 627Q52 627 46 635T39 654Q39 673 62 685Q82 696 111 703T168 710Q227 710 257 681ZM179 458T199 477T219 530V544H209Q163 544 139 540T107 526T98 501Q98 483 112 471T149 458Q179 458 199 477Z" />
<glyph unicode="&#xab;" glyph-name="guillemotleft" horiz-adv-x="441" d="M63 241Q56 254 56 266Q56 279 63 290L143 425Q154 444 175 444Q188 444 197 436T206 416Q206 408 202 400L136 265L202 131Q206 123 206 114Q206 102 197 94T176 86Q167 86 159 91T144
105L63 241ZM244 241Q237 254 237 266Q237 279 244 290L324 425Q335 444 356 444Q369 444 378 436T387 416Q387 408 383 400L317 265L383 131Q387 123 387 114Q387 102 378 94T357 86Q348 86 340 91T325 105L244 241Z" />
<glyph unicode="&#xac;" glyph-name="logicalnot" horiz-adv-x="600" d="M499 149T491 158T483 182V358H88Q75 358 66 367T56 390Q56 403 65 411T88 419H512Q526 419 535 410T544 387V182Q544 168 535 159T511 149Q499 149 491 158Z" />
<glyph unicode="&#xad;" glyph-name="uni00AD" horiz-adv-x="425" d="M84 233T75 242T65 266Q65 281 74 290T102 300H322Q341 300 350 291T360 266Q360 251 351 242T322 233H102Q84 233 75 242Z" />
<glyph unicode="&#xae;" glyph-name="registered" horiz-adv-x="815" d="M508 710T589 663T718 535T765 353Q765 253 718 172T589 43T408 -5Q308 -5 226 42T97 171T50 353Q50 453 97 534T226 663T408 710Q508 710 589 663ZM495 40T566 81T677 194T718 353Q718
440 678 511T566 624T408 665Q320 665 249 624T138 512T97 353Q97 266 137 194T249 81T408 40Q495 40 566 81ZM585 186Q593 175 593 166Q593 153 582 145T557 136Q535 136 522 156L443 277Q431 296 418 303T381 311H332V174Q332 156 322 147T295 137Q278 137 268
146T258 174V527Q258 544 267 554T294 564H435Q504 564 542 532T581 439Q581 389 553 358T473 318Q490 314 503 303T530 273L585 186ZM467 369T487 385T508 437Q508 474 488 489T426 505H332V369H426Q467 369 487 385Z" />
<glyph unicode="&#xaf;" glyph-name="overscore" horiz-adv-x="300" d="M12 622T3 630T-7 652Q-7 667 2 675T29 683H271Q288 683 297 675T307 652Q307 638 298 630T271 622H29Q12 622 3 630Z" />
<glyph unicode="&#xb0;" glyph-name="degree" horiz-adv-x="365" d="M142 420T109 439T57 491T37 565Q37 606 56 639T109 691T183 710Q223 710 256 691T308 639T328 565Q328 524 309 491T256 439T183 420Q142 420 109 439ZM221 473T246 499T271 565Q271 605 246
631T183 657Q144 657 119 631T94 565Q94 525 119 499T183 473Q221 473 246 499Z" />
<glyph unicode="&#xb1;" glyph-name="plusminus" horiz-adv-x="600" d="M75 295T66 304T56 327Q56 340 65 348T88 357H269V496Q269 510 278 519T301 529Q314 529 322 520T331 496V357H512Q526 357 535 348T544 325Q544 312 535 304T512 295H331V157Q331 143 322
133T299 123Q286 123 278 132T269 156V295H88Q75 295 66 304ZM532 63T541 54T550 30Q550 18 541 9T518 0H94Q80 0 71 9T62 33Q62 45 71 54T94 63H518Q532 63 541 54Z" />
<glyph unicode="&#xb2;" glyph-name="uni00B2" horiz-adv-x="380" d="M343 342T343 312Q343 282 308 282H79Q64 282 55 291T46 312Q46 329 60 343L196 493Q222 521 234 544T247 591Q247 620 230 635T182 650Q141 650 89 614Q75 606 64 606Q53 606 47 615T40 636Q40
654 53 664Q80 684 116 696T186 709Q249 709 285 678T321 595Q321 559 305 527T251 455L144 342H308Q343 342 343 312Z" />
<glyph unicode="&#xb3;" glyph-name="uni00B3" horiz-adv-x="380" d="M289 489T309 464T330 398Q330 343 291 311T182 278Q146 278 109 291T46 324Q33 334 33 352Q33 363 39 372T57 382Q67 382 82 373Q133 337 180 337Q218 337 239 353T260 402Q260 467 176 467H141Q128
467 121 475T113 496Q113 508 120 516T141 525H165Q205 525 227 541T249 591Q249 620 231 635T182 650Q140 650 88 614Q74 606 63 606Q52 606 46 616T39 637Q39 655 52 664Q78 684 114 696T184 709Q248 709 284 678T320 597Q320 562 302 537T252 500Q289 489 309
464Z" />
<glyph unicode="&#xb4;" glyph-name="acute" horiz-adv-x="300" d="M160 546T152 546Q142 546 135 552T128 568Q128 576 134 583L250 735Q268 758 291 758Q307 758 318 748T329 721Q329 700 309 683L168 552Q160 546 152 546Z" />
<glyph unicode="&#xb5;" glyph-name="uni00B5" horiz-adv-x="561" d="M463 497T474 487T485 457V34Q485 16 474 6T445 -5Q427 -5 417 5T406 33V83Q383 39 342 16T248 -7Q192 -7 154 18V-146Q154 -164 143 -174T113 -185Q95 -185 84 -175T73 -146V457Q73 476 84
486T114 497Q132 497 143 487T154 457V187Q154 120 181 91T262 61Q324 61 364 101T404 212V457Q404 475 415 486T445 497Q463 497 474 487Z" />
<glyph unicode="&#xb6;" glyph-name="paragraph" horiz-adv-x="582" d="M263 -185T253 -175T243 -151V310Q184 310 139 335T70 405T45 508Q45 565 69 610T139 680T245 705H461Q476 705 486 695T496 671V-151Q496 -165 486 -175T462 -185Q448 -185 439 -175T429
-151V644H310V-151Q310 -165 301 -175T277 -185Q263 -185 253 -175Z" />
<glyph unicode="&#xb7;" glyph-name="middot" horiz-adv-x="229" d="M91 209T75 225T59 266Q59 291 75 306T115 322Q138 322 153 307T169 266Q169 241 154 225T115 209Q91 209 75 225Z" />
<glyph unicode="&#xb8;" glyph-name="cedilla" horiz-adv-x="300" d="M224 -41T245 -58T267 -110Q267 -147 236 -170T149 -193Q113 -193 81 -181Q73 -178 69 -172T64 -158Q64 -149 70 -143T86 -136Q91 -136 94 -137Q121 -145 150 -145Q178 -145 192 -136T207 -110Q207
-97 199 -90T176 -83Q165 -83 148 -87T127 -92Q119 -92 113 -87T107 -73L118 20H174L167 -44Q179 -41 193 -41Q224 -41 245 -58Z" />
<glyph unicode="&#xb9;" glyph-name="uni00B9" horiz-adv-x="380" d="M332 342T332 312Q332 282 296 282H134Q99 282 99 312Q99 342 134 342H179V622L131 592Q124 588 116 588Q104 588 96 598T87 622Q87 639 101 647L183 697Q200 707 217 707Q232 707 242 698T252
671V342H296Q332 342 332 312Z" />
<glyph unicode="&#xba;" glyph-name="ordmasculine" horiz-adv-x="342" d="M101 407T62 449T22 559Q22 626 61 668T170 710Q240 710 280 668T320 559Q320 491 280 449T170 407Q101 407 62 449ZM209 464T228 488T248 559Q248 604 228 628T170 653Q133 653 114 629T94
559Q94 513 113 489T170 464Q209 464 228 488Z" />
<glyph unicode="&#xbb;" glyph-name="guillemotright" horiz-adv-x="439" d="M104 86T85 86Q72 86 63 94T54 114Q54 123 58 131L125 265L58 400Q53 410 53 417Q53 429 62 436T84 444Q105 444 116 425L195 290Q203 277 203 266Q203 255 195 241L116 105Q104 86
85 86ZM285 86T266 86Q253 86 244 94T235 114Q235 123 239 131L306 265L239 400Q234 410 234 417Q234 429 243 436T265 444Q286 444 297 425L376 290Q384 277 384 266Q384 255 376 241L297 105Q285 86 266 86Z" />
<glyph unicode="&#xbc;" glyph-name="onequarter" horiz-adv-x="933" d="M332 342T332 312Q332 282 296 282H134Q99 282 99 312Q99 342 134 342H179V622L131 592Q124 588 116 588Q104 588 96 598T87 622Q87 639 101 647L183 697Q200 707 217 707Q232 707 242 698T252
671V342H296Q332 342 332 312ZM292 -17T272 -17Q259 -17 250 -8T240 16Q240 27 246 39L628 700Q641 722 662 722Q675 722 684 713T694 689Q694 677 687 666L305 5Q292 -17 272 -17ZM915 140T915 111Q915 98 907 91T882 83H848V31Q848 14 839 5T813 -4Q798 -4 789
5T779 31V83H615Q600 83 591 92T582 115Q582 129 591 142L779 410Q791 426 812 426Q827 426 837 417T848 389V140H882Q915 140 915 111ZM655 140H779V317L655 140Z" />
<glyph unicode="&#xbd;" glyph-name="onehalf" horiz-adv-x="933" d="M332 342T332 312Q332 282 296 282H134Q99 282 99 312Q99 342 134 342H179V622L131 592Q124 588 116 588Q104 588 96 598T87 622Q87 639 101 647L183 697Q200 707 217 707Q232 707 242 698T252
671V342H296Q332 342 332 312ZM292 -17T272 -17Q259 -17 250 -8T240 16Q240 27 246 39L628 700Q641 722 662 722Q675 722 684 713T694 689Q694 677 687 666L305 5Q292 -17 272 -17ZM896 60T896 30Q896 0 861 0H632Q617 0 608 9T599 30Q599 47 613 61L749 211Q775
239 787 262T800 309Q800 338 783 353T735 368Q694 368 642 332Q628 324 617 324Q606 324 600 333T593 354Q593 372 606 382Q633 402 669 414T739 427Q802 427 838 396T874 313Q874 277 858 245T804 173L697 60H861Q896 60 896 30Z" />
<glyph unicode="&#xbe;" glyph-name="threequarters" horiz-adv-x="933" d="M289 489T309 464T330 398Q330 343 291 311T182 278Q146 278 109 291T46 324Q33 334 33 352Q33 363 39 372T57 382Q67 382 82 373Q133 337 180 337Q218 337 239 353T260 402Q260 467
176 467H141Q128 467 121 475T113 496Q113 508 120 516T141 525H165Q205 525 227 541T249 591Q249 620 231 635T182 650Q140 650 88 614Q74 606 63 606Q52 606 46 616T39 637Q39 655 52 664Q78 684 114 696T184 709Q248 709 284 678T320 597Q320 562 302 537T252
500Q289 489 309 464ZM292 -17T272 -17Q259 -17 250 -8T240 16Q240 27 246 39L628 700Q641 722 662 722Q675 722 684 713T694 689Q694 677 687 666L305 5Q292 -17 272 -17ZM915 140T915 111Q915 98 907 91T882 83H848V31Q848 14 839 5T813 -4Q798 -4 789 5T779
31V83H615Q600 83 591 92T582 115Q582 129 591 142L779 410Q791 426 812 426Q827 426 837 417T848 389V140H882Q915 140 915 111ZM655 140H779V317L655 140Z" />
<glyph unicode="&#xbf;" glyph-name="questiondown" horiz-adv-x="443" d="M211 384T196 400T180 440Q180 465 195 481T235 497Q259 497 274 481T290 440Q290 416 275 400T235 384Q211 384 196 400ZM131 -187T78 -145T24 -34Q24 2 36 30T65 79T114 130Q157 172
181 206T210 289Q211 299 218 305T235 312Q247 312 254 304T261 282Q261 239 249 206T220 151T174 97Q140 61 124 35T107 -29Q107 -70 138 -94T222 -118Q267 -118 305 -101T391 -47Q407 -36 419 -36Q431 -36 438 -46T446 -71Q446 -90 430 -105Q390 -143 333 -165T218
-187Q131 -187 78 -145Z" />
<glyph unicode="&#xc0;" glyph-name="Agrave" horiz-adv-x="727" d="M698 39T698 30Q698 15 687 5T659 -5Q634 -5 624 19L553 181H176L104 19Q94 -5 69 -5Q53 -5 41 5T29 31Q29 39 33 47L319 683Q325 697 337 704T363 711Q378 711 390 704T408 683L694 47Q698
39 698 30ZM206 249H523L364 608L206 249ZM233 850Q209 866 209 887Q209 901 219 911T244 921Q262 921 279 904L378 796Q385 789 385 780Q385 772 379 766T363 760Q357 760 350 764L233 850Z" />
<glyph unicode="&#xc1;" glyph-name="Aacute" horiz-adv-x="727" d="M698 39T698 30Q698 15 687 5T659 -5Q634 -5 624 19L553 181H176L104 19Q94 -5 69 -5Q53 -5 41 5T29 31Q29 39 33 47L319 683Q325 697 337 704T363 711Q378 711 390 704T408 683L694 47Q698
39 698 30ZM206 249H523L364 608L206 249ZM371 760T365 760Q356 760 350 766T343 780Q343 789 350 796L449 904Q465 921 484 921Q498 921 508 911T519 887Q519 866 495 850L378 764Q371 760 365 760Z" />
<glyph unicode="&#xc2;" glyph-name="Acircumflex" horiz-adv-x="727" d="M698 39T698 30Q698 15 687 5T659 -5Q634 -5 624 19L553 181H176L104 19Q94 -5 69 -5Q53 -5 41 5T29 31Q29 39 33 47L319 683Q325 697 337 704T363 711Q378 711 390 704T408 683L694 47Q698
39 698 30ZM206 249H523L364 608L206 249ZM270 760T257 760Q245 760 236 769T227 790Q227 803 238 813L327 905Q343 921 364 921Q384 921 401 905L490 813Q501 802 501 789Q501 778 492 769T472 760Q459 760 448 771L364 865L280 771Q270 760 257 760Z" />
<glyph unicode="&#xc3;" glyph-name="Atilde" horiz-adv-x="727" d="M698 39T698 30Q698 15 687 5T659 -5Q634 -5 624 19L553 181H176L104 19Q94 -5 69 -5Q53 -5 41 5T29 31Q29 39 33 47L319 683Q325 697 337 704T363 711Q378 711 390 704T408 683L694 47Q698
39 698 30ZM206 249H523L364 608L206 249ZM418 790T400 796T356 813Q334 823 320 827T294 832Q277 832 268 825T249 806Q238 791 228 791Q218 791 212 797T206 815Q206 832 217 850T248 881T293 894Q310 894 327 889T372 872Q394 862 408 858T434 853Q450 853 459
859T479 878Q490 893 500 893Q510 893 516 887T522 869Q522 852 511 834T480 803T435 790Q418 790 400 796Z" />
<glyph unicode="&#xc4;" glyph-name="Adieresis" horiz-adv-x="727" d="M698 39T698 30Q698 15 687 5T659 -5Q634 -5 624 19L553 181H176L104 19Q94 -5 69 -5Q53 -5 41 5T29 31Q29 39 33 47L319 683Q325 697 337 704T363 711Q378 711 390 704T408 683L694 47Q698
39 698 30ZM206 249H523L364 608L206 249ZM257 794T243 807T229 842Q229 863 243 876T278 890Q299 890 313 877T328 842Q328 820 314 807T278 794Q257 794 243 807ZM429 794T415 807T400 842Q400 863 414 876T450 890Q471 890 485 877T499 842Q499 821 485 808T450
794Q429 794 415 807Z" />
<glyph unicode="&#xc5;" glyph-name="Aring" horiz-adv-x="727" d="M698 39T698 30Q698 15 687 5T659 -5Q634 -5 624 19L553 181H176L104 19Q94 -5 69 -5Q53 -5 41 5T29 31Q29 39 33 47L320 683Q294 695 279 719T263 773Q263 815 292 843T364 872Q406 872 435
844T465 773Q465 743 450 719T408 683L694 47Q698 39 698 30ZM343 823T330 809T316 773Q316 752 329 738T364 723Q385 723 398 737T412 773Q412 794 399 808T364 823Q343 823 330 809ZM206 249H523L364 608L206 249Z" />
<glyph unicode="&#xc6;" glyph-name="AE" horiz-adv-x="991" d="M930 69T940 60T950 34Q950 18 940 9T912 0H607Q591 0 581 9T566 34L535 181H187L89 19Q73 -6 47 -6Q32 -6 22 2T12 25Q12 36 19 47L412 683Q427 705 460 705H912Q930 705 940 696T950 671Q950 654
940 645T912 636H513L566 392H892Q910 392 920 383T930 358Q930 342 920 333T892 324H580L635 69H912Q930 69 940 60ZM229 249H520L445 605L229 249Z" />
<glyph unicode="&#xc7;" glyph-name="Ccedilla" horiz-adv-x="677" d="M616 145T624 135T632 110Q632 90 616 75Q576 38 521 17T403 -8L399 -44Q411 -41 425 -41Q456 -41 477 -58T499 -110Q499 -147 468 -170T381 -193Q345 -193 313 -181Q305 -178 301 -172T296
-158Q296 -149 302 -143T318 -136Q323 -136 326 -137Q353 -145 382 -145Q410 -145 424 -136T439 -110Q439 -97 431 -90T408 -83Q397 -83 380 -87T359 -92Q351 -92 345 -87T339 -73L347 -6Q258 2 194 48T96 172T61 353Q61 463 100 544T213 669T386 713Q453 713 512
692T616 630Q632 615 632 595Q632 581 624 571T605 560Q593 560 576 571Q525 611 484 627T388 643Q272 643 210 568T147 353Q147 213 209 138T388 62Q441 62 483 78T576 134Q593 145 605 145Q616 145 624 135Z" />
<glyph unicode="&#xc8;" glyph-name="Egrave" horiz-adv-x="582" d="M110 0T99 11T87 40V665Q87 683 98 694T129 705H503Q521 705 531 696T541 671Q541 655 531 646T503 637H168V392H483Q501 392 511 383T521 358Q521 342 511 333T483 324H168V68H503Q521 68 531
60T541 34Q541 18 531 9T503 0H129Q110 0 99 11ZM193 850Q169 866 169 887Q169 901 179 911T204 921Q222 921 239 904L338 796Q345 789 345 780Q345 772 339 766T323 760Q317 760 310 764L193 850Z" />
<glyph unicode="&#xc9;" glyph-name="Eacute" horiz-adv-x="582" d="M110 0T99 11T87 40V665Q87 683 98 694T129 705H503Q521 705 531 696T541 671Q541 655 531 646T503 637H168V392H483Q501 392 511 383T521 358Q521 342 511 333T483 324H168V68H503Q521 68 531
60T541 34Q541 18 531 9T503 0H129Q110 0 99 11ZM331 760T325 760Q316 760 310 766T303 780Q303 789 310 796L409 904Q425 921 444 921Q458 921 468 911T479 887Q479 866 455 850L338 764Q331 760 325 760Z" />
<glyph unicode="&#xca;" glyph-name="Ecircumflex" horiz-adv-x="582" d="M110 0T99 11T87 40V665Q87 683 98 694T129 705H503Q521 705 531 696T541 671Q541 655 531 646T503 637H168V392H483Q501 392 511 383T521 358Q521 342 511 333T483 324H168V68H503Q521
68 531 60T541 34Q541 18 531 9T503 0H129Q110 0 99 11ZM230 760T217 760Q205 760 196 769T187 790Q187 803 198 813L287 905Q303 921 324 921Q344 921 361 905L450 813Q461 802 461 789Q461 778 452 769T432 760Q419 760 408 771L324 865L240 771Q230 760 217
760Z" />
<glyph unicode="&#xcb;" glyph-name="Edieresis" horiz-adv-x="582" d="M110 0T99 11T87 40V665Q87 683 98 694T129 705H503Q521 705 531 696T541 671Q541 655 531 646T503 637H168V392H483Q501 392 511 383T521 358Q521 342 511 333T483 324H168V68H503Q521 68
531 60T541 34Q541 18 531 9T503 0H129Q110 0 99 11ZM217 794T203 807T189 842Q189 863 203 876T238 890Q259 890 273 877T288 842Q288 820 274 807T238 794Q217 794 203 807ZM389 794T375 807T360 842Q360 863 374 876T410 890Q431 890 445 877T459 842Q459 821
445 808T410 794Q389 794 375 807Z" />
<glyph unicode="&#xcc;" glyph-name="Igrave" horiz-adv-x="256" d="M109 -5T98 6T87 37V668Q87 687 98 698T128 710Q147 710 158 699T169 668V37Q169 18 158 7T128 -5Q109 -5 98 6ZM-3 850Q-27 866 -27 887Q-27 901 -17 911T8 921Q26 921 43 904L142 796Q149
789 149 780Q149 772 143 766T127 760Q121 760 114 764L-3 850Z" />
<glyph unicode="&#xcd;" glyph-name="Iacute" horiz-adv-x="256" d="M109 -5T98 6T87 37V668Q87 687 98 698T128 710Q147 710 158 699T169 668V37Q169 18 158 7T128 -5Q109 -5 98 6ZM135 760T129 760Q120 760 114 766T107 780Q107 789 114 796L213 904Q229 921
248 921Q262 921 272 911T283 887Q283 866 259 850L142 764Q135 760 129 760Z" />
<glyph unicode="&#xce;" glyph-name="Icircumflex" horiz-adv-x="256" d="M109 -5T98 6T87 37V668Q87 687 98 698T128 710Q147 710 158 699T169 668V37Q169 18 158 7T128 -5Q109 -5 98 6ZM34 760T21 760Q9 760 0 769T-9 790Q-9 803 2 813L91 905Q107 921 128 921Q148
921 165 905L254 813Q265 802 265 789Q265 778 256 769T236 760Q223 760 212 771L128 865L44 771Q34 760 21 760Z" />
<glyph unicode="&#xcf;" glyph-name="Idieresis" horiz-adv-x="256" d="M109 -5T98 6T87 37V668Q87 687 98 698T128 710Q147 710 158 699T169 668V37Q169 18 158 7T128 -5Q109 -5 98 6ZM21 794T7 807T-7 842Q-7 863 7 876T42 890Q63 890 77 877T92 842Q92 820
78 807T42 794Q21 794 7 807ZM193 794T179 807T164 842Q164 863 178 876T214 890Q235 890 249 877T263 842Q263 821 249 808T214 794Q193 794 179 807Z" />
<glyph unicode="&#xd0;" glyph-name="Eth" horiz-adv-x="752" d="M506 705T598 614T691 353Q691 184 598 92T337 0H142Q123 0 112 11T100 40V324H37Q20 324 10 332T0 357Q0 373 10 382T37 391H100V665Q100 683 111 694T142 705H337Q506 705 598 614ZM607 70T607
353Q607 635 333 635H182V391H346Q363 391 372 382T382 357Q382 341 373 333T346 324H182V70H333Q607 70 607 353Z" />
<glyph unicode="&#xd1;" glyph-name="Ntilde" horiz-adv-x="739" d="M632 710T642 699T652 668V37Q652 18 642 7T612 -5Q593 -5 579 12L164 567V37Q164 18 154 7T125 -5Q107 -5 97 6T87 37V668Q87 687 97 698T127 710Q147 710 161 693L575 138V668Q575 687 585
698T614 710Q632 710 642 699ZM423 790T405 796T361 813Q339 823 325 827T299 832Q282 832 273 825T254 806Q243 791 233 791Q223 791 217 797T211 815Q211 832 222 850T253 881T298 894Q315 894 332 889T377 872Q399 862 413 858T439 853Q455 853 464 859T484
878Q495 893 505 893Q515 893 521 887T527 869Q527 852 516 834T485 803T440 790Q423 790 405 796Z" />
<glyph unicode="&#xd2;" glyph-name="Ograve" horiz-adv-x="764" d="M284 -8T212 36T100 161T61 352Q61 463 99 544T210 669T382 713Q481 713 553 670T664 545T703 353Q703 243 664 162T553 36T382 -8Q284 -8 212 36ZM494 62T556 137T619 353Q619 493 557 568T382
643Q270 643 208 568T145 353Q145 214 207 138T382 62Q494 62 556 137ZM251 850Q227 866 227 887Q227 901 237 911T262 921Q280 921 297 904L396 796Q403 789 403 780Q403 772 397 766T381 760Q375 760 368 764L251 850Z" />
<glyph unicode="&#xd3;" glyph-name="Oacute" horiz-adv-x="764" d="M284 -8T212 36T100 161T61 352Q61 463 99 544T210 669T382 713Q481 713 553 670T664 545T703 353Q703 243 664 162T553 36T382 -8Q284 -8 212 36ZM494 62T556 137T619 353Q619 493 557 568T382
643Q270 643 208 568T145 353Q145 214 207 138T382 62Q494 62 556 137ZM389 760T383 760Q374 760 368 766T361 780Q361 789 368 796L467 904Q483 921 502 921Q516 921 526 911T537 887Q537 866 513 850L396 764Q389 760 383 760Z" />
<glyph unicode="&#xd4;" glyph-name="Ocircumflex" horiz-adv-x="764" d="M284 -8T212 36T100 161T61 352Q61 463 99 544T210 669T382 713Q481 713 553 670T664 545T703 353Q703 243 664 162T553 36T382 -8Q284 -8 212 36ZM494 62T556 137T619 353Q619 493 557
568T382 643Q270 643 208 568T145 353Q145 214 207 138T382 62Q494 62 556 137ZM288 760T275 760Q263 760 254 769T245 790Q245 803 256 813L345 905Q361 921 382 921Q402 921 419 905L508 813Q519 802 519 789Q519 778 510 769T490 760Q477 760 466 771L382 865L298
771Q288 760 275 760Z" />
<glyph unicode="&#xd5;" glyph-name="Otilde" horiz-adv-x="764" d="M284 -8T212 36T100 161T61 352Q61 463 99 544T210 669T382 713Q481 713 553 670T664 545T703 353Q703 243 664 162T553 36T382 -8Q284 -8 212 36ZM494 62T556 137T619 353Q619 493 557 568T382
643Q270 643 208 568T145 353Q145 214 207 138T382 62Q494 62 556 137ZM436 790T418 796T374 813Q352 823 338 827T312 832Q295 832 286 825T267 806Q256 791 246 791Q236 791 230 797T224 815Q224 832 235 850T266 881T311 894Q328 894 345 889T390 872Q412 862
426 858T452 853Q468 853 477 859T497 878Q508 893 518 893Q528 893 534 887T540 869Q540 852 529 834T498 803T453 790Q436 790 418 796Z" />
<glyph unicode="&#xd6;" glyph-name="Odieresis" horiz-adv-x="764" d="M284 -8T212 36T100 161T61 352Q61 463 99 544T210 669T382 713Q481 713 553 670T664 545T703 353Q703 243 664 162T553 36T382 -8Q284 -8 212 36ZM494 62T556 137T619 353Q619 493 557 568T382
643Q270 643 208 568T145 353Q145 214 207 138T382 62Q494 62 556 137ZM275 794T261 807T247 842Q247 863 261 876T296 890Q317 890 331 877T346 842Q346 820 332 807T296 794Q275 794 261 807ZM447 794T433 807T418 842Q418 863 432 876T468 890Q489 890 503 877T517
842Q517 821 503 808T468 794Q447 794 433 807Z" />
<glyph unicode="&#xd7;" glyph-name="multiply" horiz-adv-x="600" d="M521 107T521 95Q521 82 510 71Q503 63 491 63Q477 63 467 74L300 241L133 74Q124 64 109 64Q96 64 87 73Q79 81 79 94Q79 108 89 117L256 284L89 451Q79 463 79 474Q79 487 89 497Q98 506
110 506Q123 506 133 496L300 329L467 496Q478 505 490 505Q504 505 513 496Q521 488 521 475Q521 461 511 451L344 284L511 117Q521 107 521 95Z" />
<glyph unicode="&#xd8;" glyph-name="Oslash" horiz-adv-x="764" d="M645 596T674 522T703 353Q703 243 664 162T553 36T382 -8Q297 -8 229 26L203 -19Q191 -40 172 -40Q159 -40 150 -31T140 -8Q140 3 147 14L175 62Q120 109 91 183T61 352Q61 463 99 544T210
669T382 713Q466 713 535 680L561 725Q572 744 592 744Q605 744 614 735T624 713Q624 703 618 692L590 643Q645 596 674 522ZM145 205T214 130L498 617Q448 643 382 643Q270 643 208 568T145 353Q145 205 214 130ZM494 62T556 137T619 353Q619 501 550 576L266
89Q316 62 382 62Q494 62 556 137Z" />
<glyph unicode="&#xd9;" glyph-name="Ugrave" horiz-adv-x="724" d="M224 -8T153 64T82 276V668Q82 687 93 698T123 710Q141 710 152 699T163 668V269Q163 166 213 114T362 62Q460 62 510 114T560 269V668Q560 687 571 698T601 710Q620 710 631 699T642 668V276Q642
137 571 65T362 -8Q224 -8 153 64ZM231 850Q207 866 207 887Q207 901 217 911T242 921Q260 921 277 904L376 796Q383 789 383 780Q383 772 377 766T361 760Q355 760 348 764L231 850Z" />
<glyph unicode="&#xda;" glyph-name="Uacute" horiz-adv-x="724" d="M224 -8T153 64T82 276V668Q82 687 93 698T123 710Q141 710 152 699T163 668V269Q163 166 213 114T362 62Q460 62 510 114T560 269V668Q560 687 571 698T601 710Q620 710 631 699T642 668V276Q642
137 571 65T362 -8Q224 -8 153 64ZM369 760T363 760Q354 760 348 766T341 780Q341 789 348 796L447 904Q463 921 482 921Q496 921 506 911T517 887Q517 866 493 850L376 764Q369 760 363 760Z" />
<glyph unicode="&#xdb;" glyph-name="Ucircumflex" horiz-adv-x="724" d="M224 -8T153 64T82 276V668Q82 687 93 698T123 710Q141 710 152 699T163 668V269Q163 166 213 114T362 62Q460 62 510 114T560 269V668Q560 687 571 698T601 710Q620 710 631 699T642 668V276Q642
137 571 65T362 -8Q224 -8 153 64ZM268 760T255 760Q243 760 234 769T225 790Q225 803 236 813L325 905Q341 921 362 921Q382 921 399 905L488 813Q499 802 499 789Q499 778 490 769T470 760Q457 760 446 771L362 865L278 771Q268 760 255 760Z" />
<glyph unicode="&#xdc;" glyph-name="Udieresis" horiz-adv-x="724" d="M224 -8T153 64T82 276V668Q82 687 93 698T123 710Q141 710 152 699T163 668V269Q163 166 213 114T362 62Q460 62 510 114T560 269V668Q560 687 571 698T601 710Q620 710 631 699T642 668V276Q642
137 571 65T362 -8Q224 -8 153 64ZM255 794T241 807T227 842Q227 863 241 876T276 890Q297 890 311 877T326 842Q326 820 312 807T276 794Q255 794 241 807ZM427 794T413 807T398 842Q398 863 412 876T448 890Q469 890 483 877T497 842Q497 821 483 808T448 794Q427
794 413 807Z" />
<glyph unicode="&#xdd;" glyph-name="Yacute" horiz-adv-x="601" d="M540 709T557 709Q571 709 582 698T593 671Q593 656 584 646L341 339V37Q341 17 330 6T300 -5Q282 -5 271 6T259 37V340L16 646Q6 657 6 671Q6 687 17 698T44 709Q61 709 73 694L301 403L528
694Q540 709 557 709ZM307 760T301 760Q292 760 286 766T279 780Q279 789 286 796L385 904Q401 921 420 921Q434 921 444 911T455 887Q455 866 431 850L314 764Q307 760 301 760Z" />
<glyph unicode="&#xde;" glyph-name="Thorn" horiz-adv-x="645" d="M482 550T541 500T600 359Q600 268 540 218T373 167H168V37Q168 18 157 7T127 -5Q109 -5 98 6T87 37V668Q87 687 98 698T127 710Q146 710 157 699T168 668V550H373Q482 550 541 500ZM443 235T481
265T519 359Q519 422 481 452T364 482H168V235H364Q443 235 481 265Z" />
<glyph unicode="&#xdf;" glyph-name="germandbls" horiz-adv-x="616" d="M364 -7T324 4T254 35Q236 48 229 58T221 83Q221 96 228 104T248 113Q259 113 284 97Q312 80 339 70T404 59Q452 59 479 78T507 133Q507 166 481 183T399 220Q353 235 325 249T276 290T256
357Q256 393 274 418T329 479Q361 508 376 528T392 576Q392 609 368 627T300 645Q231 645 194 604T156 486V35Q156 16 146 6T116 -5Q97 -5 86 5T75 35V477Q75 587 134 648T301 710Q380 710 425 676T470 579Q470 538 450 509T391 446Q363 422 349 404T335 365Q335
333 360 316T439 281Q485 265 514 250T565 207T586 136Q586 72 535 33T402 -7Q364 -7 324 4Z" />
<glyph unicode="&#xe0;" glyph-name="agrave" horiz-adv-x="530" d="M457 499T457 307V35Q457 17 447 6T418 -5Q400 -5 389 6T378 35V83Q359 40 320 17T230 -7Q183 -7 144 12T81 65T58 140Q58 195 86 225T178 269T356 283H378V316Q378 376 354 404T274 432Q206
432 136 395Q109 378 98 378Q86 378 78 387T70 410Q70 424 78 434T106 456Q141 476 185 487T274 499Q457 499 457 307ZM301 57T339 97T378 202V231H360Q272 231 226 224T161 199T141 147Q141 108 169 83T241 57Q301 57 339 97ZM115 683Q95 702 95 721Q95 737 106
747T133 758Q156 758 174 735L290 583Q296 576 296 568Q296 559 289 553T273 546Q264 546 257 552L115 683Z" />
<glyph unicode="&#xe1;" glyph-name="aacute" horiz-adv-x="530" d="M457 499T457 307V35Q457 17 447 6T418 -5Q400 -5 389 6T378 35V83Q359 40 320 17T230 -7Q183 -7 144 12T81 65T58 140Q58 195 86 225T178 269T356 283H378V316Q378 376 354 404T274 432Q206
432 136 395Q109 378 98 378Q86 378 78 387T70 410Q70 424 78 434T106 456Q141 476 185 487T274 499Q457 499 457 307ZM301 57T339 97T378 202V231H360Q272 231 226 224T161 199T141 147Q141 108 169 83T241 57Q301 57 339 97ZM284 546T276 546Q266 546 259 552T252
568Q252 576 258 583L374 735Q392 758 415 758Q431 758 442 748T453 721Q453 700 433 683L292 552Q284 546 276 546Z" />
<glyph unicode="&#xe2;" glyph-name="acircumflex" horiz-adv-x="530" d="M457 499T457 307V35Q457 17 447 6T418 -5Q400 -5 389 6T378 35V83Q359 40 320 17T230 -7Q183 -7 144 12T81 65T58 140Q58 195 86 225T178 269T356 283H378V316Q378 376 354 404T274 432Q206
432 136 395Q109 378 98 378Q86 378 78 387T70 410Q70 424 78 434T106 456Q141 476 185 487T274 499Q457 499 457 307ZM301 57T339 97T378 202V231H360Q272 231 226 224T161 199T141 147Q141 108 169 83T241 57Q301 57 339 97ZM185 547T167 547Q155 547 146 555T137
576Q137 587 144 597L236 733Q252 757 274 757Q296 757 312 733L405 597Q412 587 412 577Q412 565 403 556T381 547Q363 547 354 563L274 693L194 563Q185 547 167 547Z" />
<glyph unicode="&#xe3;" glyph-name="atilde" horiz-adv-x="530" d="M457 499T457 307V35Q457 17 447 6T418 -5Q400 -5 389 6T378 35V83Q359 40 320 17T230 -7Q183 -7 144 12T81 65T58 140Q58 195 86 225T178 269T356 283H378V316Q378 376 354 404T274 432Q206
432 136 395Q109 378 98 378Q86 378 78 387T70 410Q70 424 78 434T106 456Q141 476 185 487T274 499Q457 499 457 307ZM301 57T339 97T378 202V231H360Q272 231 226 224T161 199T141 147Q141 108 169 83T241 57Q301 57 339 97ZM326 590T308 599T265 625Q243 639
230 645T206 652Q189 652 180 643T161 618Q154 607 149 602T137 596Q128 596 122 603T116 621Q116 639 127 661T158 699T203 715Q222 715 240 706T283 680Q305 666 318 660T342 653Q358 653 367 662T387 687Q394 699 399 704T411 710Q420 710 426 703T432 684Q432
667 421 645T390 606T345 590Q326 590 308 599Z" />
<glyph unicode="&#xe4;" glyph-name="adieresis" horiz-adv-x="530" d="M457 499T457 307V35Q457 17 447 6T418 -5Q400 -5 389 6T378 35V83Q359 40 320 17T230 -7Q183 -7 144 12T81 65T58 140Q58 195 86 225T178 269T356 283H378V316Q378 376 354 404T274 432Q206
432 136 395Q109 378 98 378Q86 378 78 387T70 410Q70 424 78 434T106 456Q141 476 185 487T274 499Q457 499 457 307ZM301 57T339 97T378 202V231H360Q272 231 226 224T161 199T141 147Q141 108 169 83T241 57Q301 57 339 97ZM167 605T153 618T139 653Q139 674
153 687T188 700Q209 700 223 687T238 653Q238 631 224 618T188 605Q167 605 153 618ZM339 605T325 618T310 653Q310 674 324 687T360 700Q381 700 395 687T409 653Q409 632 395 619T360 605Q339 605 325 618Z" />
<glyph unicode="&#xe5;" glyph-name="aring" horiz-adv-x="530" d="M457 499T457 307V35Q457 17 447 6T418 -5Q400 -5 389 6T378 35V83Q359 40 320 17T230 -7Q183 -7 144 12T81 65T58 140Q58 195 86 225T178 269T356 283H378V316Q378 376 354 404T274 432Q206
432 136 395Q109 378 98 378Q86 378 78 387T70 410Q70 424 78 434T106 456Q141 476 185 487T274 499Q457 499 457 307ZM301 57T339 97T378 202V231H360Q272 231 226 224T161 199T141 147Q141 108 169 83T241 57Q301 57 339 97ZM232 554T203 582T173 653Q173 695
202 723T274 752Q316 752 345 724T375 653Q375 611 346 583T274 554Q232 554 203 582ZM295 603T308 617T322 653Q322 674 309 688T274 703Q253 703 240 689T226 653Q226 632 239 618T274 603Q295 603 308 617Z" />
<glyph unicode="&#xe6;" glyph-name="ae" horiz-adv-x="853" d="M790 113T797 104T805 81Q805 55 770 35Q736 15 697 4T620 -7Q546 -7 494 25T415 117Q396 58 350 26T238 -7Q188 -7 147 12T82 64T58 140Q58 195 86 225T178 269T358 283H381V313Q381 375 356 403T276
432Q227 432 195 421T130 392Q120 386 112 382T97 378Q85 378 78 387T70 410Q70 436 106 456Q180 499 274 499Q397 499 436 412Q465 454 509 476T608 499Q668 499 713 471T784 390T809 269Q809 249 801 240T774 231H460Q464 146 505 103T620 59Q658 59 684 69T743
97Q753 103 762 108T779 113Q790 113 797 104ZM545 436T507 396T462 283H738Q736 357 702 396T607 436Q545 436 507 396ZM305 57T343 99T381 205V231H362Q274 231 227 224T161 199T141 147Q141 107 170 82T246 57Q305 57 343 99Z" />
<glyph unicode="&#xe7;" glyph-name="ccedilla" horiz-adv-x="479" d="M441 114T448 105T456 82Q456 69 449 59T423 35Q398 18 364 7T294 -6L290 -44Q302 -41 316 -41Q347 -41 368 -58T390 -110Q390 -147 359 -170T272 -193Q236 -193 204 -181Q196 -178 192 -172T187
-158Q187 -149 193 -143T209 -136Q214 -136 217 -137Q244 -145 273 -145Q301 -145 315 -136T330 -110Q330 -97 322 -90T299 -83Q288 -83 271 -87T250 -92Q242 -92 236 -87T230 -73L238 -4Q150 8 98 74T46 244Q46 319 75 377T158 467T280 499Q318 499 355 489T421
458Q439 446 446 435T454 409Q454 395 447 386T427 377Q420 377 412 381T399 389T391 394Q365 411 342 421T284 431Q211 431 171 382T130 244Q130 156 170 108T284 60Q318 60 342 70T392 97Q403 104 413 109T430 114Q441 114 448 105Z" />
<glyph unicode="&#xe8;" glyph-name="egrave" horiz-adv-x="527" d="M463 113T471 104T479 81Q479 56 444 35Q408 14 368 4T290 -7Q177 -7 112 60T46 245Q46 320 75 377T156 467T276 499Q371 499 427 437T483 269Q483 249 475 240T449 231H127Q136 59 290 59Q329
59 357 69T417 98Q443 113 452 113Q463 113 471 104ZM213 436T175 396T129 283H412Q410 357 375 396T277 436Q213 436 175 396ZM117 683Q97 702 97 721Q97 737 108 747T135 758Q158 758 176 735L292 583Q298 576 298 568Q298 559 291 553T275 546Q266 546 259 552L117
683Z" />
<glyph unicode="&#xe9;" glyph-name="eacute" horiz-adv-x="527" d="M463 113T471 104T479 81Q479 56 444 35Q408 14 368 4T290 -7Q177 -7 112 60T46 245Q46 320 75 377T156 467T276 499Q371 499 427 437T483 269Q483 249 475 240T449 231H127Q136 59 290 59Q329
59 357 69T417 98Q443 113 452 113Q463 113 471 104ZM213 436T175 396T129 283H412Q410 357 375 396T277 436Q213 436 175 396ZM286 546T278 546Q268 546 261 552T254 568Q254 576 260 583L376 735Q394 758 417 758Q433 758 444 748T455 721Q455 700 435 683L294
552Q286 546 278 546Z" />
<glyph unicode="&#xea;" glyph-name="ecircumflex" horiz-adv-x="527" d="M463 113T471 104T479 81Q479 56 444 35Q408 14 368 4T290 -7Q177 -7 112 60T46 245Q46 320 75 377T156 467T276 499Q371 499 427 437T483 269Q483 249 475 240T449 231H127Q136 59 290
59Q329 59 357 69T417 98Q443 113 452 113Q463 113 471 104ZM213 436T175 396T129 283H412Q410 357 375 396T277 436Q213 436 175 396ZM187 547T169 547Q157 547 148 555T139 576Q139 587 146 597L238 733Q254 757 276 757Q298 757 314 733L407 597Q414 587 414
577Q414 565 405 556T383 547Q365 547 356 563L276 693L196 563Q187 547 169 547Z" />
<glyph unicode="&#xeb;" glyph-name="edieresis" horiz-adv-x="527" d="M463 113T471 104T479 81Q479 56 444 35Q408 14 368 4T290 -7Q177 -7 112 60T46 245Q46 320 75 377T156 467T276 499Q371 499 427 437T483 269Q483 249 475 240T449 231H127Q136 59 290 59Q329
59 357 69T417 98Q443 113 452 113Q463 113 471 104ZM213 436T175 396T129 283H412Q410 357 375 396T277 436Q213 436 175 396ZM169 605T155 618T141 653Q141 674 155 687T190 700Q211 700 225 687T240 653Q240 631 226 618T190 605Q169 605 155 618ZM341 605T327
618T312 653Q312 674 326 687T362 700Q383 700 397 687T411 653Q411 632 397 619T362 605Q341 605 327 618Z" />
<glyph unicode="&#xec;" glyph-name="igrave" horiz-adv-x="232" d="M98 -5T87 5T75 35V457Q75 476 86 486T116 497Q134 497 145 487T156 457V35Q156 15 145 5T116 -5Q98 -5 87 5ZM-43 683Q-63 702 -63 721Q-63 737 -52 747T-25 758Q-2 758 16 735L132 583Q138
576 138 568Q138 559 131 553T115 546Q106 546 99 552L-43 683Z" />
<glyph unicode="&#xed;" glyph-name="iacute" horiz-adv-x="232" d="M98 -5T87 5T75 35V457Q75 476 86 486T116 497Q134 497 145 487T156 457V35Q156 15 145 5T116 -5Q98 -5 87 5ZM126 546T118 546Q108 546 101 552T94 568Q94 576 100 583L216 735Q234 758 257
758Q273 758 284 748T295 721Q295 700 275 683L134 552Q126 546 118 546Z" />
<glyph unicode="&#xee;" glyph-name="icircumflex" horiz-adv-x="232" d="M98 -5T87 5T75 35V457Q75 476 86 486T116 497Q134 497 145 487T156 457V35Q156 15 145 5T116 -5Q98 -5 87 5ZM27 547T9 547Q-3 547 -12 555T-21 576Q-21 587 -14 597L78 733Q94 757 116
757Q138 757 154 733L247 597Q254 587 254 577Q254 565 245 556T223 547Q205 547 196 563L116 693L36 563Q27 547 9 547Z" />
<glyph unicode="&#xef;" glyph-name="idieresis" horiz-adv-x="232" d="M98 -5T87 5T75 35V457Q75 476 86 486T116 497Q134 497 145 487T156 457V35Q156 15 145 5T116 -5Q98 -5 87 5ZM9 605T-5 618T-19 653Q-19 674 -5 687T30 700Q51 700 65 687T80 653Q80 631
66 618T30 605Q9 605 -5 618ZM181 605T167 618T152 653Q152 674 166 687T202 700Q223 700 237 687T251 653Q251 632 237 619T202 605Q181 605 167 618Z" />
<glyph unicode="&#xf0;" glyph-name="eth" horiz-adv-x="559" d="M513 455T513 282Q513 141 452 67T275 -7Q207 -7 155 21T75 102T46 224Q46 293 74 345T154 426T272 455Q374 455 425 388Q403 479 331 551L199 503Q191 501 189 501Q178 501 171 509T163 529Q163
547 182 554L284 590Q239 623 190 643Q162 656 162 678Q162 691 172 700T198 710Q208 710 221 705Q300 674 363 619L472 658Q480 660 483 660Q494 660 501 652T509 634Q509 626 504 619T489 608L404 577Q513 455 513 282ZM347 60T386 103T426 225Q426 302 388 345T277
389Q206 389 167 346T128 224Q128 145 167 103T277 60Q347 60 386 103Z" />
<glyph unicode="&#xf1;" glyph-name="ntilde" horiz-adv-x="568" d="M495 499T495 306V35Q495 16 485 6T455 -5Q436 -5 425 5T414 35V301Q414 369 388 400T303 431Q236 431 196 390T156 279V35Q156 16 146 6T116 -5Q97 -5 86 5T75 35V457Q75 475 86 486T116 497Q134
497 144 486T155 458V407Q179 452 222 475T320 499Q495 499 495 306ZM337 590T319 599T276 625Q254 639 241 645T217 652Q200 652 191 643T172 618Q165 607 160 602T148 596Q139 596 133 603T127 621Q127 639 138 661T169 699T214 715Q233 715 251 706T294 680Q316
666 329 660T353 653Q369 653 378 662T398 687Q405 699 410 704T422 710Q431 710 437 703T443 684Q443 667 432 645T401 606T356 590Q337 590 319 599Z" />
<glyph unicode="&#xf2;" glyph-name="ograve" horiz-adv-x="555" d="M208 -7T156 24T75 112T46 246Q46 322 74 379T155 468T277 499Q346 499 399 468T480 380T509 246Q509 170 481 113T399 24T277 -7Q208 -7 156 24ZM349 60T387 107T426 246Q426 335 387 383T277
432Q206 432 167 384T128 246Q128 156 166 108T277 60Q349 60 387 107ZM118 683Q98 702 98 721Q98 737 109 747T136 758Q159 758 177 735L293 583Q299 576 299 568Q299 559 292 553T276 546Q267 546 260 552L118 683Z" />
<glyph unicode="&#xf3;" glyph-name="oacute" horiz-adv-x="555" d="M208 -7T156 24T75 112T46 246Q46 322 74 379T155 468T277 499Q346 499 399 468T480 380T509 246Q509 170 481 113T399 24T277 -7Q208 -7 156 24ZM349 60T387 107T426 246Q426 335 387 383T277
432Q206 432 167 384T128 246Q128 156 166 108T277 60Q349 60 387 107ZM287 546T279 546Q269 546 262 552T255 568Q255 576 261 583L377 735Q395 758 418 758Q434 758 445 748T456 721Q456 700 436 683L295 552Q287 546 279 546Z" />
<glyph unicode="&#xf4;" glyph-name="ocircumflex" horiz-adv-x="555" d="M208 -7T156 24T75 112T46 246Q46 322 74 379T155 468T277 499Q346 499 399 468T480 380T509 246Q509 170 481 113T399 24T277 -7Q208 -7 156 24ZM349 60T387 107T426 246Q426 335 387
383T277 432Q206 432 167 384T128 246Q128 156 166 108T277 60Q349 60 387 107ZM188 547T170 547Q158 547 149 555T140 576Q140 587 147 597L239 733Q255 757 277 757Q299 757 315 733L408 597Q415 587 415 577Q415 565 406 556T384 547Q366 547 357 563L277 693L197
563Q188 547 170 547Z" />
<glyph unicode="&#xf5;" glyph-name="otilde" horiz-adv-x="555" d="M208 -7T156 24T75 112T46 246Q46 322 74 379T155 468T277 499Q346 499 399 468T480 380T509 246Q509 170 481 113T399 24T277 -7Q208 -7 156 24ZM349 60T387 107T426 246Q426 335 387 383T277
432Q206 432 167 384T128 246Q128 156 166 108T277 60Q349 60 387 107ZM329 590T311 599T268 625Q246 639 233 645T209 652Q192 652 183 643T164 618Q157 607 152 602T140 596Q131 596 125 603T119 621Q119 639 130 661T161 699T206 715Q225 715 243 706T286 680Q308
666 321 660T345 653Q361 653 370 662T390 687Q397 699 402 704T414 710Q423 710 429 703T435 684Q435 667 424 645T393 606T348 590Q329 590 311 599Z" />
<glyph unicode="&#xf6;" glyph-name="odieresis" horiz-adv-x="555" d="M208 -7T156 24T75 112T46 246Q46 322 74 379T155 468T277 499Q346 499 399 468T480 380T509 246Q509 170 481 113T399 24T277 -7Q208 -7 156 24ZM349 60T387 107T426 246Q426 335 387 383T277
432Q206 432 167 384T128 246Q128 156 166 108T277 60Q349 60 387 107ZM170 605T156 618T142 653Q142 674 156 687T191 700Q212 700 226 687T241 653Q241 631 227 618T191 605Q170 605 156 618ZM342 605T328 618T313 653Q313 674 327 687T363 700Q384 700 398 687T412
653Q412 632 398 619T363 605Q342 605 328 618Z" />
<glyph unicode="&#xf7;" glyph-name="divide" horiz-adv-x="600" d="M280 436T266 450T252 486Q252 508 266 521T300 535Q321 535 334 522T348 486Q348 464 334 450T300 436Q280 436 266 450ZM80 253T71 262T62 286Q62 298 71 307T94 316H518Q532 316 541 307T550
283Q550 271 541 262T518 253H94Q80 253 71 262ZM280 35T266 49T252 84Q252 106 266 119T300 133Q321 133 334 120T348 84Q348 63 335 49T300 35Q280 35 266 49Z" />
<glyph unicode="&#xf8;" glyph-name="oslash" horiz-adv-x="555" d="M467 413T488 362T509 246Q509 170 481 113T399 24T277 -7Q220 -7 175 14L154 -23Q145 -38 129 -38Q118 -38 109 -30T100 -11Q100 -4 105 4L128 43Q89 76 68 128T46 246Q46 322 74 379T155 468T277
499Q336 499 381 477L402 514Q410 529 427 529Q438 529 447 521T456 502Q456 495 451 487L428 447Q467 413 488 362ZM128 155T166 108L346 417Q316 432 277 432Q206 432 167 384T128 246Q128 155 166 108ZM350 60T388 107T427 246Q427 334 389 381L210 73Q237 60
277 60Q350 60 388 107Z" />
<glyph unicode="&#xf9;" glyph-name="ugrave" horiz-adv-x="561" d="M464 497T474 486T485 457V34Q485 17 475 6T445 -5Q427 -5 417 5T406 33V83Q383 39 342 16T248 -7Q161 -7 117 41T73 185V457Q73 475 84 486T114 497Q133 497 143 486T154 457V187Q154 122 180
92T262 61Q326 61 365 102T404 212V457Q404 475 415 486T445 497Q464 497 474 486ZM121 683Q101 702 101 721Q101 737 112 747T139 758Q162 758 180 735L296 583Q302 576 302 568Q302 559 295 553T279 546Q270 546 263 552L121 683Z" />
<glyph unicode="&#xfa;" glyph-name="uacute" horiz-adv-x="561" d="M464 497T474 486T485 457V34Q485 17 475 6T445 -5Q427 -5 417 5T406 33V83Q383 39 342 16T248 -7Q161 -7 117 41T73 185V457Q73 475 84 486T114 497Q133 497 143 486T154 457V187Q154 122 180
92T262 61Q326 61 365 102T404 212V457Q404 475 415 486T445 497Q464 497 474 486ZM290 546T282 546Q272 546 265 552T258 568Q258 576 264 583L380 735Q398 758 421 758Q437 758 448 748T459 721Q459 700 439 683L298 552Q290 546 282 546Z" />
<glyph unicode="&#xfb;" glyph-name="ucircumflex" horiz-adv-x="561" d="M464 497T474 486T485 457V34Q485 17 475 6T445 -5Q427 -5 417 5T406 33V83Q383 39 342 16T248 -7Q161 -7 117 41T73 185V457Q73 475 84 486T114 497Q133 497 143 486T154 457V187Q154
122 180 92T262 61Q326 61 365 102T404 212V457Q404 475 415 486T445 497Q464 497 474 486ZM191 547T173 547Q161 547 152 555T143 576Q143 587 150 597L242 733Q258 757 280 757Q302 757 318 733L411 597Q418 587 418 577Q418 565 409 556T387 547Q369 547 360
563L280 693L200 563Q191 547 173 547Z" />
<glyph unicode="&#xfc;" glyph-name="udieresis" horiz-adv-x="561" d="M464 497T474 486T485 457V34Q485 17 475 6T445 -5Q427 -5 417 5T406 33V83Q383 39 342 16T248 -7Q161 -7 117 41T73 185V457Q73 475 84 486T114 497Q133 497 143 486T154 457V187Q154 122
180 92T262 61Q326 61 365 102T404 212V457Q404 475 415 486T445 497Q464 497 474 486ZM173 605T159 618T145 653Q145 674 159 687T194 700Q215 700 229 687T244 653Q244 631 230 618T194 605Q173 605 159 618ZM345 605T331 618T316 653Q316 674 330 687T366 700Q387
700 401 687T415 653Q415 632 401 619T366 605Q345 605 331 618Z" />
<glyph unicode="&#xfd;" glyph-name="yacute" horiz-adv-x="514" d="M437 496T461 496Q476 496 488 486T500 461Q500 452 496 445L215 -161Q210 -172 201 -178T181 -184Q166 -184 155 -175T143 -150Q143 -142 147 -134L217 17L19 445Q15 452 15 460Q15 475 28
486T58 497Q68 497 77 491T92 474L259 99L426 472Q437 496 461 496ZM268 546T260 546Q250 546 243 552T236 568Q236 576 242 583L358 735Q376 758 399 758Q415 758 426 748T437 721Q437 700 417 683L276 552Q268 546 260 546Z" />
<glyph unicode="&#xfe;" glyph-name="thorn" horiz-adv-x="582" d="M382 499T431 468T508 379T536 244Q536 167 509 110T432 23T320 -7Q263 -7 221 18T156 89V-146Q156 -164 145 -174T116 -185Q98 -185 87 -175T75 -146V671Q75 689 86 699T116 710Q134 710 145
700T156 671V403Q178 449 220 474T320 499Q382 499 431 468ZM376 60T414 108T453 244Q453 331 414 381T304 431Q233 431 195 383T156 246Q156 157 194 109T304 60Q376 60 414 108Z" />
<glyph unicode="&#xff;" glyph-name="ydieresis" horiz-adv-x="514" d="M437 496T461 496Q476 496 488 486T500 461Q500 452 496 445L215 -161Q210 -172 201 -178T181 -184Q166 -184 155 -175T143 -150Q143 -142 147 -134L217 17L19 445Q15 452 15 460Q15 475
28 486T58 497Q68 497 77 491T92 474L259 99L426 472Q437 496 461 496ZM151 605T137 618T123 653Q123 674 137 687T172 700Q193 700 207 687T222 653Q222 631 208 618T172 605Q151 605 137 618ZM323 605T309 618T294 653Q294 674 308 687T344 700Q365 700 379 687T393
653Q393 632 379 619T344 605Q323 605 309 618Z" />
<glyph unicode="&#x2013;" glyph-name="endash" horiz-adv-x="500" d="M18 240T9 247T0 266Q0 277 9 284T33 292H467Q482 292 491 285T500 266Q500 255 491 248T467 240H33Q18 240 9 247Z" />
<glyph unicode="&#x2014;" glyph-name="emdash" horiz-adv-x="1000" d="M18 240T9 247T0 266Q0 277 9 284T33 292H967Q982 292 991 285T1000 266Q1000 255 991 248T967 240H33Q18 240 9 247Z" />
<glyph unicode="&#x2021;" glyph-name="quoteleft" horiz-adv-x="229" d="M141 598T155 583T169 545Q169 520 154 505T116 489Q90 489 75 508T59 567Q59 644 110 700Q120 710 133 710Q144 710 152 703T160 685Q160 674 152 666Q126 639 119 600Q141 598 155 583Z" />
<glyph unicode="&#x2019;" glyph-name="quoteright" horiz-adv-x="229" d="M138 710T153 691T169 632Q169 553 118 499Q108 489 96 489Q85 489 77 496T69 514Q69 525 77 533Q103 559 110 599Q88 601 74 616T59 654Q59 679 74 694T113 710Q138 710 153 691Z" />
<glyph unicode="&#x201a;" glyph-name="quotesinglbase" horiz-adv-x="229" d="M138 108T153 89T169 30Q169 -49 118 -103Q108 -114 95 -114Q85 -114 77 -107T69 -89Q69 -78 77 -70Q103 -43 110 -3Q88 -1 74 13T59 51Q59 76 74 92T113 108Q138 108 153 89Z" />
<glyph unicode="&#x201c;" glyph-name="quotedblleft" horiz-adv-x="395" d="M141 598T155 583T169 545Q169 520 154 505T116 489Q90 489 75 508T59 567Q59 644 110 700Q120 710 133 710Q144 710 152 703T160 685Q160 674 152 666Q126 639 119 600Q141 598 155
583ZM307 598T321 583T335 545Q335 520 320 505T282 489Q256 489 241 508T225 567Q225 644 276 700Q286 710 299 710Q310 710 318 703T326 685Q326 674 318 666Q292 639 285 600Q307 598 321 583Z" />
<glyph unicode="&#x201d;" glyph-name="quotedblright" horiz-adv-x="395" d="M138 710T153 691T169 632Q169 553 118 499Q108 489 96 489Q85 489 77 496T69 514Q69 525 77 533Q103 559 110 599Q88 601 74 616T59 654Q59 679 74 694T113 710Q138 710 153 691ZM304
710T319 691T335 632Q335 553 284 499Q274 489 262 489Q251 489 243 496T235 514Q235 525 243 533Q269 559 276 599Q254 601 240 616T225 654Q225 679 240 694T279 710Q304 710 319 691Z" />
<glyph unicode="&#x201e;" glyph-name="quotedblbase" horiz-adv-x="395" d="M138 108T153 89T169 30Q169 -49 118 -103Q108 -114 95 -114Q85 -114 77 -107T69 -89Q69 -78 77 -70Q103 -43 110 -3Q88 -1 74 13T59 51Q59 76 74 92T113 108Q138 108 153 89ZM304 108T319
89T335 30Q335 -49 284 -103Q274 -114 261 -114Q251 -114 243 -107T235 -89Q235 -78 243 -70Q269 -43 276 -3Q254 -1 240 13T225 51Q225 76 240 92T279 108Q304 108 319 89Z" />
<glyph unicode="&#x2022;" glyph-name="bullet" horiz-adv-x="524" d="M214 88T172 111T106 175T81 265Q81 311 104 352T169 418T262 443Q310 443 351 420T418 356T443 265Q443 217 419 177T353 112T262 88Q214 88 172 111Z" />
<glyph unicode="&#x2039;" glyph-name="guilsinglleft" horiz-adv-x="260" d="M63 241Q56 254 56 266Q56 279 63 290L143 425Q154 444 175 444Q188 444 197 436T206 416Q206 408 202 400L136 265L202 131Q206 123 206 114Q206 102 197 94T176 86Q167 86 159 91T144
105L63 241Z" />
<glyph unicode="&#x203a;" glyph-name="guilsinglright" horiz-adv-x="258" d="M104 86T85 86Q72 86 63 94T54 114Q54 123 58 131L125 265L58 400Q53 410 53 417Q53 429 62 436T84 444Q105 444 116 425L195 290Q203 277 203 266Q203 255 195 241L116 105Q104 86 85 86Z" />
</font>
</defs>
</svg>
